{
    "mediaPath": "/home/pi/Music",
    "picturePath": "/home/pi/pictures",
    "productPath": "/home/pi/products",
    "serialScannerEnabled": false,
    "serialScannerPort": null,
    "nfcReaderPn532": null,
    "nfcConnectionType": 0
  }
  