﻿{
  "code": "7613312223024",
  "product": {
    "_id": "7613312223024",
    "_keywords": [
      "rose",
      "durable",
      "produit",
      "peche",
      "thon",
      "de",
      "mer",
      "migro",
      "mclassic",
      "poisson",
      "msc",
      "la"
    ],
    "added_countries_tags": [],
    "additives_old_tags": [],
    "additives_original_tags": [],
    "additives_tags": [],
    "allergens": "",
    "allergens_from_ingredients": "",
    "allergens_from_user": "(fr) ",
    "allergens_hierarchy": [],
    "allergens_tags": [],
    "amino_acids_tags": [],
    "brands": "Migros, MClassic",
    "brands_tags": [
      "migros",
      "mclassic"
    ],
    "categories": "Produits de la mer, Poissons, Thons",
    "categories_hierarchy": [
      "en:seafood",
      "en:fishes",
      "en:tunas"
    ],
    "categories_lc": "fr",
    "categories_old": "Produits de la mer, Poissons, Thons",
    "categories_properties": {
      "agribalyse_food_code:en": "26053",
      "ciqual_food_code:en": "26053"
    },
    "categories_properties_tags": [
      "all-products",
      "categories-known",
      "agribalyse-food-code-26053",
      "agribalyse-food-code-known",
      "agribalyse-proxy-food-code-unknown",
      "ciqual-food-code-26053",
      "ciqual-food-code-known",
      "agribalyse-known",
      "agribalyse-26053"
    ],
    "categories_tags": [
      "en:seafood",
      "en:fishes",
      "en:tunas"
    ],
    "category_properties": {
      "ciqual_food_name:en": "Tuna, raw"
    },
    "checkers_tags": [],
    "ciqual_food_name_tags": [
      "tuna-raw"
    ],
    "code": "7613312223024",
    "codes_tags": [
      "code-13",
      "7613312223xxx",
      "761331222xxxx",
      "76133122xxxxx",
      "7613312xxxxxx",
      "761331xxxxxxx",
      "76133xxxxxxxx",
      "7613xxxxxxxxx",
      "761xxxxxxxxxx",
      "76xxxxxxxxxxx",
      "7xxxxxxxxxxxx"
    ],
    "compared_to_category": "en:tunas",
    "complete": 0,
    "completeness": 0.575,
    "correctors_tags": [
      "yuka.NpZtHY6ZHskQIPPI9KsVjAqrMNy5Ks0GEVcNoQ",
      "kiliweb",
      "yuka.VoFIY-yyA8AgQvPLjNwz0ye2FczxAOYCBGdWow",
      "teolemon",
      "yuka.VJdIH-exH5AkRsWP4Z4-0yehMrrfP9l0BycdoQ",
      "yuka.DKpDDtyUGM4PPfPV9Ysm4x62FtvMLcB3I0VXog",
      "prepperapp"
    ],
    "countries": "Switzerland, Germany",
    "countries_hierarchy": [
      "en:germany",
      "en:switzerland"
    ],
    "countries_lc": "en",
    "countries_tags": [
      "en:germany",
      "en:switzerland"
    ],
    "created_t": 1580813747,
    "creator": "kiliweb",
    "data_quality_bugs_tags": [],
    "data_quality_errors_tags": [],
    "data_quality_info_tags": [
      "en:no-packaging-data"
    ],
    "data_quality_tags": [
      "en:no-packaging-data",
      "en:ecoscore-origins-of-ingredients-origins-are-100-percent-unknown",
      "en:ecoscore-packaging-packaging-data-missing",
      "en:ecoscore-threatened-species-ingredients-missing"
    ],
    "data_quality_warnings_tags": [
      "en:ecoscore-origins-of-ingredients-origins-are-100-percent-unknown",
      "en:ecoscore-packaging-packaging-data-missing",
      "en:ecoscore-threatened-species-ingredients-missing"
    ],
    "data_sources": "App - yuka, Apps",
    "data_sources_tags": [
      "app-yuka",
      "apps"
    ],
    "ecoscore_data": {
      "adjustments": {
        "origins_of_ingredients": {
          "aggregated_origins": [
            {
              "origin": "en:unknown",
              "percent": 100
            }
          ],
          "epi_score": 0,
          "epi_value": -5,
          "origins_from_origins_field": [
            "en:unknown"
          ],
          "transportation_scores": {
            "ad": 0,
            "al": 0,
            "at": 0,
            "ax": 0,
            "ba": 0,
            "be": 0,
            "bg": 0,
            "ch": 0,
            "cy": 0,
            "cz": 0,
            "de": 0,
            "dk": 0,
            "dz": 0,
            "ee": 0,
            "eg": 0,
            "es": 0,
            "fi": 0,
            "fo": 0,
            "fr": 0,
            "gg": 0,
            "gi": 0,
            "gr": 0,
            "hr": 0,
            "hu": 0,
            "ie": 0,
            "il": 0,
            "im": 0,
            "is": 0,
            "it": 0,
            "je": 0,
            "lb": 0,
            "li": 0,
            "lt": 0,
            "lu": 0,
            "lv": 0,
            "ly": 0,
            "ma": 0,
            "mc": 0,
            "md": 0,
            "me": 0,
            "mk": 0,
            "mt": 0,
            "nl": 0,
            "no": 0,
            "pl": 0,
            "ps": 0,
            "pt": 0,
            "ro": 0,
            "rs": 0,
            "se": 0,
            "si": 0,
            "sj": 0,
            "sk": 0,
            "sm": 0,
            "sy": 0,
            "tn": 0,
            "tr": 0,
            "ua": 0,
            "uk": 0,
            "us": 0,
            "va": 0,
            "xk": 0
          },
          "transportation_values": {
            "ad": 0,
            "al": 0,
            "at": 0,
            "ax": 0,
            "ba": 0,
            "be": 0,
            "bg": 0,
            "ch": 0,
            "cy": 0,
            "cz": 0,
            "de": 0,
            "dk": 0,
            "dz": 0,
            "ee": 0,
            "eg": 0,
            "es": 0,
            "fi": 0,
            "fo": 0,
            "fr": 0,
            "gg": 0,
            "gi": 0,
            "gr": 0,
            "hr": 0,
            "hu": 0,
            "ie": 0,
            "il": 0,
            "im": 0,
            "is": 0,
            "it": 0,
            "je": 0,
            "lb": 0,
            "li": 0,
            "lt": 0,
            "lu": 0,
            "lv": 0,
            "ly": 0,
            "ma": 0,
            "mc": 0,
            "md": 0,
            "me": 0,
            "mk": 0,
            "mt": 0,
            "nl": 0,
            "no": 0,
            "pl": 0,
            "ps": 0,
            "pt": 0,
            "ro": 0,
            "rs": 0,
            "se": 0,
            "si": 0,
            "sj": 0,
            "sk": 0,
            "sm": 0,
            "sy": 0,
            "tn": 0,
            "tr": 0,
            "ua": 0,
            "uk": 0,
            "us": 0,
            "va": 0,
            "xk": 0
          },
          "values": {
            "ad": -5,
            "al": -5,
            "at": -5,
            "ax": -5,
            "ba": -5,
            "be": -5,
            "bg": -5,
            "ch": -5,
            "cy": -5,
            "cz": -5,
            "de": -5,
            "dk": -5,
            "dz": -5,
            "ee": -5,
            "eg": -5,
            "es": -5,
            "fi": -5,
            "fo": -5,
            "fr": -5,
            "gg": -5,
            "gi": -5,
            "gr": -5,
            "hr": -5,
            "hu": -5,
            "ie": -5,
            "il": -5,
            "im": -5,
            "is": -5,
            "it": -5,
            "je": -5,
            "lb": -5,
            "li": -5,
            "lt": -5,
            "lu": -5,
            "lv": -5,
            "ly": -5,
            "ma": -5,
            "mc": -5,
            "md": -5,
            "me": -5,
            "mk": -5,
            "mt": -5,
            "nl": -5,
            "no": -5,
            "pl": -5,
            "ps": -5,
            "pt": -5,
            "ro": -5,
            "rs": -5,
            "se": -5,
            "si": -5,
            "sj": -5,
            "sk": -5,
            "sm": -5,
            "sy": -5,
            "tn": -5,
            "tr": -5,
            "ua": -5,
            "uk": -5,
            "us": -5,
            "va": -5,
            "xk": -5
          },
          "warning": "origins_are_100_percent_unknown"
        },
        "packaging": {
          "non_recyclable_and_non_biodegradable_materials": 1,
          "value": -15,
          "warning": "packaging_data_missing"
        },
        "production_system": {
          "labels": [
            "en:sustainable-seafood-msc"
          ],
          "value": 10
        },
        "threatened_species": {
          "warning": "ingredients_missing"
        }
      },
      "agribalyse": {
        "agribalyse_food_code": "26053",
        "co2_agriculture": "3.3371218",
        "co2_consumption": "0.0047993021",
        "co2_distribution": "0.030308663",
        "co2_packaging": "0.28844568",
        "co2_processing": "0",
        "co2_total": "4.4406179",
        "co2_transportation": "0.7799424",
        "code": "26053",
        "dqr": "3.57",
        "ef_agriculture": "0.62292161",
        "ef_consumption": "0.0024293397",
        "ef_distribution": "0.0089437534",
        "ef_packaging": "0.01768459",
        "ef_processing": "0",
        "ef_total": "0.7168430299999999",
        "ef_transportation": "0.064863743",
        "is_beverage": 0,
        "name_en": "Tuna, raw",
        "name_fr": "Thon, cru",
        "score": 41
      },
      "grade": "d",
      "grades": {
        "ad": "d",
        "al": "d",
        "at": "d",
        "ax": "d",
        "ba": "d",
        "be": "d",
        "bg": "d",
        "ch": "d",
        "cy": "d",
        "cz": "d",
        "de": "d",
        "dk": "d",
        "dz": "d",
        "ee": "d",
        "eg": "d",
        "es": "d",
        "fi": "d",
        "fo": "d",
        "fr": "d",
        "gg": "d",
        "gi": "d",
        "gr": "d",
        "hr": "d",
        "hu": "d",
        "ie": "d",
        "il": "d",
        "im": "d",
        "is": "d",
        "it": "d",
        "je": "d",
        "lb": "d",
        "li": "d",
        "lt": "d",
        "lu": "d",
        "lv": "d",
        "ly": "d",
        "ma": "d",
        "mc": "d",
        "md": "d",
        "me": "d",
        "mk": "d",
        "mt": "d",
        "nl": "d",
        "no": "d",
        "pl": "d",
        "ps": "d",
        "pt": "d",
        "ro": "d",
        "rs": "d",
        "se": "d",
        "si": "d",
        "sj": "d",
        "sk": "d",
        "sm": "d",
        "sy": "d",
        "tn": "d",
        "tr": "d",
        "ua": "d",
        "uk": "d",
        "us": "d",
        "va": "d",
        "xk": "d"
      },
      "missing": {
        "ingredients": 1,
        "origins": 1,
        "packagings": 1
      },
      "missing_data_warning": 1,
      "score": 31,
      "scores": {
        "ad": 31,
        "al": 31,
        "at": 31,
        "ax": 31,
        "ba": 31,
        "be": 31,
        "bg": 31,
        "ch": 31,
        "cy": 31,
        "cz": 31,
        "de": 31,
        "dk": 31,
        "dz": 31,
        "ee": 31,
        "eg": 31,
        "es": 31,
        "fi": 31,
        "fo": 31,
        "fr": 31,
        "gg": 31,
        "gi": 31,
        "gr": 31,
        "hr": 31,
        "hu": 31,
        "ie": 31,
        "il": 31,
        "im": 31,
        "is": 31,
        "it": 31,
        "je": 31,
        "lb": 31,
        "li": 31,
        "lt": 31,
        "lu": 31,
        "lv": 31,
        "ly": 31,
        "ma": 31,
        "mc": 31,
        "md": 31,
        "me": 31,
        "mk": 31,
        "mt": 31,
        "nl": 31,
        "no": 31,
        "pl": 31,
        "ps": 31,
        "pt": 31,
        "ro": 31,
        "rs": 31,
        "se": 31,
        "si": 31,
        "sj": 31,
        "sk": 31,
        "sm": 31,
        "sy": 31,
        "tn": 31,
        "tr": 31,
        "ua": 31,
        "uk": 31,
        "us": 31,
        "va": 31,
        "xk": 31
      },
      "status": "known"
    },
    "ecoscore_grade": "d",
    "ecoscore_score": 31,
    "ecoscore_tags": [
      "d"
    ],
    "editors_tags": [
      "yuka.NpZtHY6ZHskQIPPI9KsVjAqrMNy5Ks0GEVcNoQ",
      "teolemon",
      "kiliweb",
      "prepperapp",
      "yuka.VoFIY-yyA8AgQvPLjNwz0ye2FczxAOYCBGdWow",
      "roboto-app",
      "yuka.VDUwdExhYyt1dWdqbE5neHhTM3YzZk5iNkw2TWVubVNkTGNXSVE9PQ",
      "yuka.VJdIH-exH5AkRsWP4Z4-0yehMrrfP9l0BycdoQ",
      "yuka.DKpDDtyUGM4PPfPV9Ysm4x62FtvMLcB3I0VXog"
    ],
    "entry_dates_tags": [
      "2020-02-04",
      "2020-02",
      "2020"
    ],
    "id": "7613312223024",
    "image_front_small_url": "https://images.openfoodfacts.org/images/products/761/331/222/3024/front_fr.3.200.jpg",
    "image_front_thumb_url": "https://images.openfoodfacts.org/images/products/761/331/222/3024/front_fr.3.100.jpg",
    "image_front_url": "https://images.openfoodfacts.org/images/products/761/331/222/3024/front_fr.3.400.jpg",
    "image_nutrition_small_url": "https://images.openfoodfacts.org/images/products/761/331/222/3024/nutrition_fr.19.200.jpg",
    "image_nutrition_thumb_url": "https://images.openfoodfacts.org/images/products/761/331/222/3024/nutrition_fr.19.100.jpg",
    "image_nutrition_url": "https://images.openfoodfacts.org/images/products/761/331/222/3024/nutrition_fr.19.400.jpg",
    "image_small_url": "https://images.openfoodfacts.org/images/products/761/331/222/3024/front_fr.3.200.jpg",
    "image_thumb_url": "https://images.openfoodfacts.org/images/products/761/331/222/3024/front_fr.3.100.jpg",
    "image_url": "https://images.openfoodfacts.org/images/products/761/331/222/3024/front_fr.3.400.jpg",
    "images": {
      "1": {
        "sizes": {
          "100": {
            "h": 75,
            "w": 100
          },
          "400": {
            "h": 298,
            "w": 400
          },
          "full": {
            "h": 1200,
            "w": 1609
          }
        },
        "uploaded_t": 1580813748,
        "uploader": "kiliweb"
      },
      "2": {
        "sizes": {
          "100": {
            "h": 69,
            "w": 100
          },
          "400": {
            "h": 274,
            "w": 400
          },
          "full": {
            "h": 1200,
            "w": 1750
          }
        },
        "uploaded_t": 1580813749,
        "uploader": "kiliweb"
      },
      "3": {
        "sizes": {
          "100": {
            "h": 75,
            "w": 100
          },
          "400": {
            "h": 301,
            "w": 400
          },
          "full": {
            "h": 1200,
            "w": 1594
          }
        },
        "uploaded_t": 1589047576,
        "uploader": "kiliweb"
      },
      "4": {
        "sizes": {
          "100": {
            "h": 74,
            "w": 100
          },
          "400": {
            "h": 296,
            "w": 400
          },
          "full": {
            "h": 1200,
            "w": 1621
          }
        },
        "uploaded_t": 1589620417,
        "uploader": "kiliweb"
      },
      "5": {
        "sizes": {
          "100": {
            "h": 100,
            "w": 63
          },
          "400": {
            "h": 400,
            "w": 253
          },
          "full": {
            "h": 1200,
            "w": 758
          }
        },
        "uploaded_t": 1590493069,
        "uploader": "kiliweb"
      },
      "front_fr": {
        "angle": 0,
        "geometry": "0x0--4--4",
        "imgid": "1",
        "normalize": null,
        "rev": "3",
        "sizes": {
          "100": {
            "h": 75,
            "w": 100
          },
          "200": {
            "h": 149,
            "w": 200
          },
          "400": {
            "h": 298,
            "w": 400
          },
          "full": {
            "h": 1200,
            "w": 1609
          }
        },
        "white_magic": null,
        "x1": "-1",
        "x2": "-1",
        "y1": "-1",
        "y2": "-1"
      },
      "nutrition_fr": {
        "angle": 0,
        "geometry": "0x0--1--1",
        "imgid": "5",
        "normalize": null,
        "rev": "19",
        "sizes": {
          "100": {
            "h": 100,
            "w": 63
          },
          "200": {
            "h": 200,
            "w": 126
          },
          "400": {
            "h": 400,
            "w": 253
          },
          "full": {
            "h": 1200,
            "w": 758
          }
        },
        "white_magic": null,
        "x1": "-1",
        "x2": "-1",
        "y1": "-1",
        "y2": "-1"
      }
    },
    "informers_tags": [
      "yuka.VDUwdExhYyt1dWdqbE5neHhTM3YzZk5iNkw2TWVubVNkTGNXSVE9PQ",
      "kiliweb",
      "roboto-app",
      "teolemon",
      "prepperapp"
    ],
    "ingredients_from_palm_oil_tags": [],
    "ingredients_that_may_be_from_palm_oil_tags": [],
    "interface_version_created": "20150316.jqm2",
    "interface_version_modified": "20150316.jqm2",
    "labels": "Pêche durable, Pêche durable MSC\n\n",
    "labels_hierarchy": [
      "en:sustainable-fishery",
      "en:sustainable-seafood-msc"
    ],
    "labels_lc": "fr",
    "labels_old": "Pêche durable, Pêche durable MSC\n\n",
    "labels_tags": [
      "en:sustainable-fishery",
      "en:sustainable-seafood-msc"
    ],
    "lang": "fr",
    "languages": {
      "en:french": 3,
      "en:german": 1
    },
    "languages_codes": {
      "de": 1,
      "fr": 3
    },
    "languages_hierarchy": [
      "en:french",
      "en:german"
    ],
    "languages_tags": [
      "en:french",
      "en:german",
      "en:2",
      "en:multilingual"
    ],
    "last_edit_dates_tags": [
      "2021-10-29",
      "2021-10",
      "2021"
    ],
    "last_editor": "prepperapp",
    "last_image_dates_tags": [
      "2020-05-26",
      "2020-05",
      "2020"
    ],
    "last_image_t": 1590493069,
    "last_modified_by": "prepperapp",
    "last_modified_t": 1635504760,
    "lc": "fr",
    "main_countries_tags": [],
    "max_imgid": "5",
    "minerals_tags": [],
    "misc_tags": [
      "en:nutrition-no-fiber",
      "en:nutrition-no-fruits-vegetables-nuts",
      "en:nutrition-no-fiber-or-fruits-vegetables-nuts",
      "en:nutriscore-computed",
      "en:ecoscore-missing-data-warning",
      "en:ecoscore-computed",
      "en:main-countries-de-ingredients-not-in-country-language",
      "en:main-countries-de-only-1-field-in-country-language",
      "en:main-countries-ch-ingredients-not-in-country-language",
      "en:ecoscore-extended-data-not-computed"
    ],
    "nova_group_debug": "no nova group when the product does not have ingredients",
    "nova_group_tags": [
      "not-applicable"
    ],
    "nucleotides_tags": [],
    "nutrient_levels": {
      "fat": "low",
      "salt": "moderate",
      "saturated-fat": "low",
      "sugars": "low"
    },
    "nutrient_levels_tags": [
      "en:fat-in-low-quantity",
      "en:saturated-fat-in-low-quantity",
      "en:sugars-in-low-quantity",
      "en:salt-in-moderate-quantity"
    ],
    "nutriments": {
      "carbohydrates": 0,
      "carbohydrates_100g": 0,
      "carbohydrates_unit": "g",
      "carbohydrates_value": 0,
      "energy": 456,
      "energy-kcal": 109,
      "energy-kcal_100g": 109,
      "energy-kcal_unit": "kcal",
      "energy-kcal_value": 109,
      "energy_100g": 456,
      "energy_unit": "kcal",
      "energy_value": 109,
      "fat": 0.5,
      "fat_100g": 0.5,
      "fat_unit": "g",
      "fat_value": 0.5,
      "nutrition-score-fr": -1,
      "nutrition-score-fr_100g": -1,
      "proteins": 26,
      "proteins_100g": 26,
      "proteins_unit": "g",
      "proteins_value": 26,
      "salt": 0.9,
      "salt_100g": 0.9,
      "salt_unit": "g",
      "salt_value": 0.9,
      "saturated-fat": 0,
      "saturated-fat_100g": 0,
      "saturated-fat_unit": "g",
      "saturated-fat_value": 0,
      "sodium": 0.36,
      "sodium_100g": 0.36,
      "sodium_unit": "g",
      "sodium_value": 0.36,
      "sugars": 0,
      "sugars_100g": 0,
      "sugars_unit": "g",
      "sugars_value": 0
    },
    "nutriscore_data": {
      "energy": 456,
      "energy_points": 1,
      "energy_value": 456,
      "fiber": 0,
      "fiber_points": 0,
      "fiber_value": 0,
      "fruits_vegetables_nuts_colza_walnut_olive_oils": 0,
      "fruits_vegetables_nuts_colza_walnut_olive_oils_points": 0,
      "fruits_vegetables_nuts_colza_walnut_olive_oils_value": 0,
      "grade": "a",
      "is_beverage": 0,
      "is_cheese": 0,
      "is_fat": 0,
      "is_water": 0,
      "negative_points": 4,
      "positive_points": 5,
      "proteins": 26,
      "proteins_points": 5,
      "proteins_value": 26,
      "saturated_fat": 0,
      "saturated_fat_points": 0,
      "saturated_fat_ratio": 0,
      "saturated_fat_ratio_points": 0,
      "saturated_fat_ratio_value": 0,
      "saturated_fat_value": 0,
      "score": -1,
      "sodium": 360,
      "sodium_points": 3,
      "sodium_value": 360,
      "sugars": 0,
      "sugars_points": 0,
      "sugars_value": 0
    },
    "nutriscore_grade": "a",
    "nutriscore_score": -1,
    "nutriscore_score_opposite": 1,
    "nutrition_data_per": "100g",
    "nutrition_data_prepared_per": "100g",
    "nutrition_grade_fr": "a",
    "nutrition_grades": "a",
    "nutrition_grades_tags": [
      "a"
    ],
    "nutrition_score_beverage": 0,
    "nutrition_score_warning_no_fiber": 1,
    "nutrition_score_warning_no_fruits_vegetables_nuts": 1,
    "other_nutritional_substances_tags": [],
    "packagings": [],
    "photographers_tags": [
      "kiliweb"
    ],
    "pnns_groups_1": "Fish Meat Eggs",
    "pnns_groups_1_tags": [
      "fish-meat-eggs",
      "known"
    ],
    "pnns_groups_2": "Fish and seafood",
    "pnns_groups_2_tags": [
      "fish-and-seafood",
      "known"
    ],
    "popularity_key": 2,
    "popularity_tags": [
      "bottom-25-percent-scans-2020",
      "top-80-percent-scans-2020",
      "top-85-percent-scans-2020",
      "top-90-percent-scans-2020",
      "top-50000-ch-scans-2020",
      "top-100000-ch-scans-2020",
      "top-country-ch-scans-2020"
    ],
    "product_name": "Thon rose",
    "product_name_de": "Thon rose",
    "product_name_fr": "Thon rose",
    "product_quantity": "200",
    "quantity": "200g",
    "removed_countries_tags": [],
    "rev": 22,
    "scans_n": 3,
    "selected_images": {
      "front": {
        "display": {
          "fr": "https://images.openfoodfacts.org/images/products/761/331/222/3024/front_fr.3.400.jpg"
        },
        "small": {
          "fr": "https://images.openfoodfacts.org/images/products/761/331/222/3024/front_fr.3.200.jpg"
        },
        "thumb": {
          "fr": "https://images.openfoodfacts.org/images/products/761/331/222/3024/front_fr.3.100.jpg"
        }
      },
      "nutrition": {
        "display": {
          "fr": "https://images.openfoodfacts.org/images/products/761/331/222/3024/nutrition_fr.19.400.jpg"
        },
        "small": {
          "fr": "https://images.openfoodfacts.org/images/products/761/331/222/3024/nutrition_fr.19.200.jpg"
        },
        "thumb": {
          "fr": "https://images.openfoodfacts.org/images/products/761/331/222/3024/nutrition_fr.19.100.jpg"
        }
      }
    },
    "sortkey": 1597650464,
    "states": "en:to-be-completed, en:nutrition-facts-completed, en:ingredients-to-be-completed, en:expiration-date-to-be-completed, en:packaging-code-to-be-completed, en:characteristics-to-be-completed, en:origins-to-be-completed, en:categories-completed, en:brands-completed, en:packaging-to-be-completed, en:quantity-completed, en:product-name-completed, en:photos-to-be-validated, en:packaging-photo-to-be-selected, en:nutrition-photo-selected, en:ingredients-photo-to-be-selected, en:front-photo-selected, en:photos-uploaded",
    "states_hierarchy": [
      "en:to-be-completed",
      "en:nutrition-facts-completed",
      "en:ingredients-to-be-completed",
      "en:expiration-date-to-be-completed",
      "en:packaging-code-to-be-completed",
      "en:characteristics-to-be-completed",
      "en:origins-to-be-completed",
      "en:categories-completed",
      "en:brands-completed",
      "en:packaging-to-be-completed",
      "en:quantity-completed",
      "en:product-name-completed",
      "en:photos-to-be-validated",
      "en:packaging-photo-to-be-selected",
      "en:nutrition-photo-selected",
      "en:ingredients-photo-to-be-selected",
      "en:front-photo-selected",
      "en:photos-uploaded"
    ],
    "states_tags": [
      "en:to-be-completed",
      "en:nutrition-facts-completed",
      "en:ingredients-to-be-completed",
      "en:expiration-date-to-be-completed",
      "en:packaging-code-to-be-completed",
      "en:characteristics-to-be-completed",
      "en:origins-to-be-completed",
      "en:categories-completed",
      "en:brands-completed",
      "en:packaging-to-be-completed",
      "en:quantity-completed",
      "en:product-name-completed",
      "en:photos-to-be-validated",
      "en:packaging-photo-to-be-selected",
      "en:nutrition-photo-selected",
      "en:ingredients-photo-to-be-selected",
      "en:front-photo-selected",
      "en:photos-uploaded"
    ],
    "stores": "Migros",
    "stores_tags": [
      "migros"
    ],
    "teams": "chocolatine,la-robe-est-bleue",
    "teams_tags": [
      "chocolatine",
      "la-robe-est-bleue"
    ],
    "traces": "",
    "traces_from_ingredients": "",
    "traces_from_user": "(fr) ",
    "traces_hierarchy": [],
    "traces_tags": [],
    "unique_scans_n": 2,
    "unknown_nutrients_tags": [],
    "update_key": "eco1",
    "vitamins_tags": []
  },
  "status": 1,
  "status_verbose": "product found"
}