{
  "code": "7613036347419",
  "product": {
    "_id": "7613036347419",
    "_keywords": [
      "vegetaux",
      "rainforest",
      "edulcoree",
      "avec",
      "base",
      "no-preservative",
      "de",
      "sucre",
      "nestea",
      "aliment",
      "ajoute",
      "nestle",
      "the",
      "glace",
      "alliance",
      "boisson",
      "au",
      "et",
      "lemon"
    ],
    "added_countries_tags": [],
    "additives_debug_tags": [],
    "additives_old_tags": [],
    "additives_original_tags": [],
    "additives_prev_original_tags": [],
    "additives_tags": [],
    "allergens": "",
    "allergens_from_ingredients": "",
    "allergens_from_user": "(fr) ",
    "allergens_hierarchy": [],
    "allergens_lc": "fr",
    "allergens_tags": [],
    "amino_acids_prev_tags": [],
    "amino_acids_tags": [],
    "brands": "Nestlé",
    "brands_tags": [
      "nestle"
    ],
    "categories": "Aliments et boissons à base de végétaux, Boissons, Boissons à base de végétaux, Boissons édulcorées, Boissons au thé, Thés glacés, Boissons avec sucre ajouté",
    "categories_hierarchy": [
      "en:plant-based-foods-and-beverages",
      "en:beverages",
      "en:plant-based-beverages",
      "en:artificially-sweetened-beverages",
      "en:tea-based-beverages",
      "en:iced-teas",
      "en:sweetened-beverages"
    ],
    "categories_lc": "fr",
    "categories_old": "Aliments et boissons à base de végétaux, Boissons, Boissons à base de végétaux, Boissons édulcorées, Boissons au thé, Thés glacés, Boissons avec sucre ajouté",
    "categories_properties": {
      "agribalyse_proxy_food_code:en": "18015",
      "ciqual_food_code:en": "18062"
    },
    "categories_properties_tags": [
      "all-products",
      "categories-known",
      "agribalyse-food-code-unknown",
      "agribalyse-proxy-food-code-18015",
      "agribalyse-proxy-food-code-known",
      "ciqual-food-code-18062",
      "ciqual-food-code-known",
      "agribalyse-known",
      "agribalyse-18015"
    ],
    "categories_tags": [
      "en:plant-based-foods-and-beverages",
      "en:beverages",
      "en:plant-based-beverages",
      "en:artificially-sweetened-beverages",
      "en:tea-based-beverages",
      "en:iced-teas",
      "en:sweetened-beverages"
    ],
    "category_properties": {
      "ciqual_food_name:en": "Still soft drink with tea extract, sugar and sweetener-s- content -average-",
      "ciqual_food_name:fr": "Boisson au thé, aromatisée, teneur en sucre et édulcorant inconnue -aliment moyen-"
    },
    "checkers_tags": [],
    "ciqual_food_name_tags": [
      "still-soft-drink-with-tea-extract-sugar-and-sweetener-s-content-average"
    ],
    "cities_tags": [],
    "code": "7613036347419",
    "codes_tags": [
      "code-13",
      "7613036347xxx",
      "761303634xxxx",
      "76130363xxxxx",
      "7613036xxxxxx",
      "761303xxxxxxx",
      "76130xxxxxxxx",
      "7613xxxxxxxxx",
      "761xxxxxxxxxx",
      "76xxxxxxxxxxx",
      "7xxxxxxxxxxxx"
    ],
    "compared_to_category": "en:sweetened-beverages",
    "complete": 0,
    "completeness": 0.6,
    "correctors_tags": [
      "openfoodfacts-contributors",
      "bojackhorseman",
      "asmoth",
      "scanbot",
      "maelysd12",
      "yuka.WnBwZEc2RXFuL1UzbE1VaC9RN2sxTlZQMmNIMFdET3JDY2xQSUE9PQ",
      "kiliweb",
      "roboto-app",
      "yuka.KO1YOOyWO9cFOvWN6doPxmDrOMWxKe18IGU_og"
    ],
    "countries": "France,Suisse",
    "countries_beforescanbot": "France",
    "countries_hierarchy": [
      "en:france",
      "en:switzerland"
    ],
    "countries_lc": "fr",
    "countries_tags": [
      "en:france",
      "en:switzerland"
    ],
    "created_t": 1517226060,
    "creator": "kiliweb",
    "data_quality_bugs_tags": [],
    "data_quality_errors_tags": [],
    "data_quality_info_tags": [
      "en:no-packaging-data",
      "en:ingredients-percent-analysis-ok"
    ],
    "data_quality_tags": [
      "en:no-packaging-data",
      "en:ingredients-percent-analysis-ok",
      "en:nutrition-value-under-0-1-g-salt",
      "en:ecoscore-origins-of-ingredients-origins-are-100-percent-unknown",
      "en:ecoscore-packaging-packaging-data-missing",
      "en:ecoscore-threatened-species-ingredients-missing"
    ],
    "data_quality_warnings_tags": [
      "en:nutrition-value-under-0-1-g-salt",
      "en:ecoscore-origins-of-ingredients-origins-are-100-percent-unknown",
      "en:ecoscore-packaging-packaging-data-missing",
      "en:ecoscore-threatened-species-ingredients-missing"
    ],
    "data_sources": "App - yuka, Apps",
    "data_sources_tags": [
      "app-yuka",
      "apps"
    ],
    "debug_param_sorted_langs": [
      "fr"
    ],
    "ecoscore_data": {
      "adjustments": {
        "origins_of_ingredients": {
          "aggregated_origins": [
            {
              "origin": "en:unknown",
              "percent": 100
            }
          ],
          "epi_score": 0,
          "epi_value": -5,
          "origins_from_origins_field": [
            "en:unknown"
          ],
          "transportation_scores": {
            "ad": 0,
            "al": 0,
            "at": 0,
            "ax": 0,
            "ba": 0,
            "be": 0,
            "bg": 0,
            "ch": 0,
            "cy": 0,
            "cz": 0,
            "de": 0,
            "dk": 0,
            "dz": 0,
            "ee": 0,
            "eg": 0,
            "es": 0,
            "fi": 0,
            "fo": 0,
            "fr": 0,
            "gg": 0,
            "gi": 0,
            "gr": 0,
            "hr": 0,
            "hu": 0,
            "ie": 0,
            "il": 0,
            "im": 0,
            "is": 0,
            "it": 0,
            "je": 0,
            "lb": 0,
            "li": 0,
            "lt": 0,
            "lu": 0,
            "lv": 0,
            "ly": 0,
            "ma": 0,
            "mc": 0,
            "md": 0,
            "me": 0,
            "mk": 0,
            "mt": 0,
            "nl": 0,
            "no": 0,
            "pl": 0,
            "ps": 0,
            "pt": 0,
            "ro": 0,
            "rs": 0,
            "se": 0,
            "si": 0,
            "sj": 0,
            "sk": 0,
            "sm": 0,
            "sy": 0,
            "tn": 0,
            "tr": 0,
            "ua": 0,
            "uk": 0,
            "us": 0,
            "va": 0,
            "xk": 0
          },
          "transportation_values": {
            "ad": 0,
            "al": 0,
            "at": 0,
            "ax": 0,
            "ba": 0,
            "be": 0,
            "bg": 0,
            "ch": 0,
            "cy": 0,
            "cz": 0,
            "de": 0,
            "dk": 0,
            "dz": 0,
            "ee": 0,
            "eg": 0,
            "es": 0,
            "fi": 0,
            "fo": 0,
            "fr": 0,
            "gg": 0,
            "gi": 0,
            "gr": 0,
            "hr": 0,
            "hu": 0,
            "ie": 0,
            "il": 0,
            "im": 0,
            "is": 0,
            "it": 0,
            "je": 0,
            "lb": 0,
            "li": 0,
            "lt": 0,
            "lu": 0,
            "lv": 0,
            "ly": 0,
            "ma": 0,
            "mc": 0,
            "md": 0,
            "me": 0,
            "mk": 0,
            "mt": 0,
            "nl": 0,
            "no": 0,
            "pl": 0,
            "ps": 0,
            "pt": 0,
            "ro": 0,
            "rs": 0,
            "se": 0,
            "si": 0,
            "sj": 0,
            "sk": 0,
            "sm": 0,
            "sy": 0,
            "tn": 0,
            "tr": 0,
            "ua": 0,
            "uk": 0,
            "us": 0,
            "va": 0,
            "xk": 0
          },
          "values": {
            "ad": -5,
            "al": -5,
            "at": -5,
            "ax": -5,
            "ba": -5,
            "be": -5,
            "bg": -5,
            "ch": -5,
            "cy": -5,
            "cz": -5,
            "de": -5,
            "dk": -5,
            "dz": -5,
            "ee": -5,
            "eg": -5,
            "es": -5,
            "fi": -5,
            "fo": -5,
            "fr": -5,
            "gg": -5,
            "gi": -5,
            "gr": -5,
            "hr": -5,
            "hu": -5,
            "ie": -5,
            "il": -5,
            "im": -5,
            "is": -5,
            "it": -5,
            "je": -5,
            "lb": -5,
            "li": -5,
            "lt": -5,
            "lu": -5,
            "lv": -5,
            "ly": -5,
            "ma": -5,
            "mc": -5,
            "md": -5,
            "me": -5,
            "mk": -5,
            "mt": -5,
            "nl": -5,
            "no": -5,
            "pl": -5,
            "ps": -5,
            "pt": -5,
            "ro": -5,
            "rs": -5,
            "se": -5,
            "si": -5,
            "sj": -5,
            "sk": -5,
            "sm": -5,
            "sy": -5,
            "tn": -5,
            "tr": -5,
            "ua": -5,
            "uk": -5,
            "us": -5,
            "va": -5,
            "xk": -5
          },
          "warning": "origins_are_100_percent_unknown"
        },
        "packaging": {
          "non_recyclable_and_non_biodegradable_materials": 1,
          "value": -15,
          "warning": "packaging_data_missing"
        },
        "production_system": {
          "labels": [
            "en:rainforest-alliance"
          ],
          "value": 10
        },
        "threatened_species": {
          "warning": "ingredients_missing"
        }
      },
      "agribalyse": {
        "agribalyse_food_code": "18015",
        "agribalyse_proxy_food_code": "18015",
        "co2_agriculture": "0.15553303",
        "co2_consumption": "0.0047993021",
        "co2_distribution": "0.028932423",
        "co2_packaging": "0.22265825",
        "co2_processing": "0.013398921",
        "co2_total": "0.61211314",
        "co2_transportation": "0.18679121",
        "code": "18015",
        "dqr": "3.02",
        "ef_agriculture": "0.040207998",
        "ef_consumption": "0.0024293397",
        "ef_distribution": "0.0088128735",
        "ef_packaging": "0.021199983000000002",
        "ef_processing": "0.0013686475000000001",
        "ef_total": "0.088439832",
        "ef_transportation": "0.014420991",
        "is_beverage": 1,
        "name_en": "Still soft drink with tea extract, with sugar and artificial sweetener(s)",
        "name_fr": "Boisson au thé, aromatisée, sucrée, avec édulcorants",
        "score": 68
      },
      "grade": "c",
      "grades": {
        "ad": "c",
        "al": "c",
        "at": "c",
        "ax": "c",
        "ba": "c",
        "be": "c",
        "bg": "c",
        "ch": "c",
        "cy": "c",
        "cz": "c",
        "de": "c",
        "dk": "c",
        "dz": "c",
        "ee": "c",
        "eg": "c",
        "es": "c",
        "fi": "c",
        "fo": "c",
        "fr": "c",
        "gg": "c",
        "gi": "c",
        "gr": "c",
        "hr": "c",
        "hu": "c",
        "ie": "c",
        "il": "c",
        "im": "c",
        "is": "c",
        "it": "c",
        "je": "c",
        "lb": "c",
        "li": "c",
        "lt": "c",
        "lu": "c",
        "lv": "c",
        "ly": "c",
        "ma": "c",
        "mc": "c",
        "md": "c",
        "me": "c",
        "mk": "c",
        "mt": "c",
        "nl": "c",
        "no": "c",
        "pl": "c",
        "ps": "c",
        "pt": "c",
        "ro": "c",
        "rs": "c",
        "se": "c",
        "si": "c",
        "sj": "c",
        "sk": "c",
        "sm": "c",
        "sy": "c",
        "tn": "c",
        "tr": "c",
        "ua": "c",
        "uk": "c",
        "us": "c",
        "va": "c",
        "xk": "c"
      },
      "missing": {
        "ingredients": 1,
        "origins": 1,
        "packagings": 1
      },
      "missing_data_warning": 1,
      "score": 58,
      "scores": {
        "ad": 58,
        "al": 58,
        "at": 58,
        "ax": 58,
        "ba": 58,
        "be": 58,
        "bg": 58,
        "ch": 58,
        "cy": 58,
        "cz": 58,
        "de": 58,
        "dk": 58,
        "dz": 58,
        "ee": 58,
        "eg": 58,
        "es": 58,
        "fi": 58,
        "fo": 58,
        "fr": 58,
        "gg": 58,
        "gi": 58,
        "gr": 58,
        "hr": 58,
        "hu": 58,
        "ie": 58,
        "il": 58,
        "im": 58,
        "is": 58,
        "it": 58,
        "je": 58,
        "lb": 58,
        "li": 58,
        "lt": 58,
        "lu": 58,
        "lv": 58,
        "ly": 58,
        "ma": 58,
        "mc": 58,
        "md": 58,
        "me": 58,
        "mk": 58,
        "mt": 58,
        "nl": 58,
        "no": 58,
        "pl": 58,
        "ps": 58,
        "pt": 58,
        "ro": 58,
        "rs": 58,
        "se": 58,
        "si": 58,
        "sj": 58,
        "sk": 58,
        "sm": 58,
        "sy": 58,
        "tn": 58,
        "tr": 58,
        "ua": 58,
        "uk": 58,
        "us": 58,
        "va": 58,
        "xk": 58
      },
      "status": "known"
    },
    "ecoscore_grade": "c",
    "ecoscore_score": 58,
    "ecoscore_tags": [
      "c"
    ],
    "editors_tags": [
      "yuka.DZlOYO7bQZUzTMSP0JpugAGGCdzmIMBHA28Kog",
      "yuka.KO1YOOyWO9cFOvWN6doPxmDrOMWxKe18IGU_og",
      "kiliweb",
      "bojackhorseman",
      "yuka.XbNkDv-qLfE_AsqI_qwa3wLnE-PjPvx3GmYoog",
      "scanbot",
      "openfoodfacts-contributors",
      "roboto-app",
      "yuka.WnBwZEc2RXFuL1UzbE1VaC9RN2sxTlZQMmNIMFdET3JDY2xQSUE9PQ",
      "asmoth",
      "yuka.ZVBvUEw3ay8vc1FCeGZBQThoanY0ZDVYMTVLWWJVZVRlOW9xSVE9PQ",
      "maelysd12"
    ],
    "emb_codes": "",
    "emb_codes_orig": "",
    "emb_codes_tags": [],
    "entry_dates_tags": [
      "2018-01-29",
      "2018-01",
      "2018"
    ],
    "expiration_date": "",
    "generic_name": "",
    "generic_name_fr": "",
    "id": "7613036347419",
    "image_front_small_url": "https://images.openfoodfacts.org/images/products/761/303/634/7419/front_fr.22.200.jpg",
    "image_front_thumb_url": "https://images.openfoodfacts.org/images/products/761/303/634/7419/front_fr.22.100.jpg",
    "image_front_url": "https://images.openfoodfacts.org/images/products/761/303/634/7419/front_fr.22.400.jpg",
    "image_ingredients_small_url": "https://images.openfoodfacts.org/images/products/761/303/634/7419/ingredients_fr.9.200.jpg",
    "image_ingredients_thumb_url": "https://images.openfoodfacts.org/images/products/761/303/634/7419/ingredients_fr.9.100.jpg",
    "image_ingredients_url": "https://images.openfoodfacts.org/images/products/761/303/634/7419/ingredients_fr.9.400.jpg",
    "image_nutrition_small_url": "https://images.openfoodfacts.org/images/products/761/303/634/7419/nutrition_fr.37.200.jpg",
    "image_nutrition_thumb_url": "https://images.openfoodfacts.org/images/products/761/303/634/7419/nutrition_fr.37.100.jpg",
    "image_nutrition_url": "https://images.openfoodfacts.org/images/products/761/303/634/7419/nutrition_fr.37.400.jpg",
    "image_small_url": "https://images.openfoodfacts.org/images/products/761/303/634/7419/front_fr.22.200.jpg",
    "image_thumb_url": "https://images.openfoodfacts.org/images/products/761/303/634/7419/front_fr.22.100.jpg",
    "image_url": "https://images.openfoodfacts.org/images/products/761/303/634/7419/front_fr.22.400.jpg",
    "images": {
      "1": {
        "sizes": {
          "100": {
            "h": 100,
            "w": 75
          },
          "400": {
            "h": 400,
            "w": 300
          },
          "full": {
            "h": 1360,
            "w": 1021
          }
        },
        "uploaded_t": "1517226064",
        "uploader": "kiliweb"
      },
      "2": {
        "sizes": {
          "100": {
            "h": 100,
            "w": 75
          },
          "400": {
            "h": 400,
            "w": 300
          },
          "full": {
            "h": 4030,
            "w": 3024
          }
        },
        "uploaded_t": "1517226074",
        "uploader": "kiliweb"
      },
      "3": {
        "sizes": {
          "100": {
            "h": 49,
            "w": 100
          },
          "400": {
            "h": 195,
            "w": 400
          },
          "full": {
            "h": 448,
            "w": 918
          }
        },
        "uploaded_t": 1587042306,
        "uploader": "kiliweb"
      },
      "4": {
        "sizes": {
          "100": {
            "h": 100,
            "w": 41
          },
          "400": {
            "h": 400,
            "w": 165
          },
          "full": {
            "h": 1200,
            "w": 494
          }
        },
        "uploaded_t": 1587042541,
        "uploader": "kiliweb"
      },
      "5": {
        "sizes": {
          "100": {
            "h": 29,
            "w": 100
          },
          "400": {
            "h": 116,
            "w": 400
          },
          "full": {
            "h": 349,
            "w": 1203
          }
        },
        "uploaded_t": 1587042541,
        "uploader": "kiliweb"
      },
      "6": {
        "sizes": {
          "100": {
            "h": 47,
            "w": 100
          },
          "400": {
            "h": 189,
            "w": 400
          },
          "full": {
            "h": 577,
            "w": 1218
          }
        },
        "uploaded_t": 1587307385,
        "uploader": "kiliweb"
      },
      "7": {
        "sizes": {
          "100": {
            "h": 100,
            "w": 59
          },
          "400": {
            "h": 400,
            "w": 236
          },
          "full": {
            "h": 1200,
            "w": 708
          }
        },
        "uploaded_t": 1589884509,
        "uploader": "kiliweb"
      },
      "8": {
        "sizes": {
          "100": {
            "h": 100,
            "w": 64
          },
          "400": {
            "h": 400,
            "w": 255
          },
          "full": {
            "h": 1087,
            "w": 692
          }
        },
        "uploaded_t": 1595843500,
        "uploader": "kiliweb"
      },
      "9": {
        "sizes": {
          "100": {
            "h": 86,
            "w": 100
          },
          "400": {
            "h": 345,
            "w": 400
          },
          "full": {
            "h": 763,
            "w": 885
          }
        },
        "uploaded_t": 1595945372,
        "uploader": "kiliweb"
      },
      "front_fr": {
        "angle": 0,
        "geometry": "0x0--1--1",
        "imgid": "4",
        "normalize": null,
        "rev": "22",
        "sizes": {
          "100": {
            "h": 100,
            "w": 41
          },
          "200": {
            "h": 200,
            "w": 82
          },
          "400": {
            "h": 400,
            "w": 165
          },
          "full": {
            "h": 1200,
            "w": 494
          }
        },
        "white_magic": null,
        "x1": "-1",
        "x2": "-1",
        "y1": "-1",
        "y2": "-1"
      },
      "ingredients_fr": {
        "angle": "0",
        "geometry": "1965x433-744-935",
        "imgid": "2",
        "normalize": "false",
        "ocr": 1,
        "orientation": "0",
        "rev": "9",
        "sizes": {
          "100": {
            "h": 22,
            "w": 100
          },
          "200": {
            "h": 44,
            "w": 200
          },
          "400": {
            "h": 88,
            "w": 400
          },
          "full": {
            "h": 433,
            "w": 1965
          }
        },
        "white_magic": "false",
        "x1": "73.828125",
        "x2": "268.828125",
        "y1": "92.8125",
        "y2": "135.8125"
      },
      "nutrition_fr": {
        "angle": 0,
        "geometry": "0x0--1--1",
        "imgid": "9",
        "normalize": null,
        "rev": "37",
        "sizes": {
          "100": {
            "h": 86,
            "w": 100
          },
          "200": {
            "h": 172,
            "w": 200
          },
          "400": {
            "h": 345,
            "w": 400
          },
          "full": {
            "h": 763,
            "w": 885
          }
        },
        "white_magic": null,
        "x1": "-1",
        "x2": "-1",
        "y1": "-1",
        "y2": "-1"
      }
    },
    "informers_tags": [
      "yuka.ZVBvUEw3ay8vc1FCeGZBQThoanY0ZDVYMTVLWWJVZVRlOW9xSVE9PQ",
      "kiliweb",
      "bojackhorseman",
      "asmoth",
      "yuka.WnBwZEc2RXFuL1UzbE1VaC9RN2sxTlZQMmNIMFdET3JDY2xQSUE9PQ"
    ],
    "ingredients_debug": [],
    "ingredients_from_or_that_may_be_from_palm_oil_n": 0,
    "ingredients_from_palm_oil_tags": [],
    "ingredients_hierarchy": [],
    "ingredients_ids_debug": [],
    "ingredients_text": "",
    "ingredients_text_debug": "",
    "ingredients_text_debug_tags": [],
    "ingredients_text_fr": "",
    "ingredients_text_with_allergens": "",
    "ingredients_text_with_allergens_fr": "",
    "ingredients_that_may_be_from_palm_oil_tags": [],
    "interface_version_created": "20150316.jqm2",
    "interface_version_modified": "20150316.jqm2",
    "labels": "Sans conservateurs, Rainforest Alliance\n",
    "labels_hierarchy": [
      "en:no-preservatives",
      "en:rainforest-alliance"
    ],
    "labels_lc": "fr",
    "labels_old": "Rainforest Alliance, en:no-preservatives",
    "labels_tags": [
      "en:no-preservatives",
      "en:rainforest-alliance"
    ],
    "lang": "fr",
    "languages": {
      "en:french": 4
    },
    "languages_codes": {
      "fr": 4
    },
    "languages_hierarchy": [
      "en:french"
    ],
    "languages_tags": [
      "en:french",
      "en:1"
    ],
    "last_edit_dates_tags": [
      "2020-07-28",
      "2020-07",
      "2020"
    ],
    "last_editor": "kiliweb",
    "last_image_dates_tags": [
      "2020-07-28",
      "2020-07",
      "2020"
    ],
    "last_image_t": 1595945372,
    "last_modified_by": "kiliweb",
    "last_modified_t": 1595945372,
    "lc": "fr",
    "link": "",
    "main_countries_tags": [],
    "manufacturing_places": "",
    "manufacturing_places_tags": [],
    "max_imgid": "9",
    "minerals_prev_tags": [],
    "minerals_tags": [],
    "misc_tags": [
      "en:nutrition-fruits-vegetables-nuts-estimate",
      "en:nutrition-all-nutriscore-values-known",
      "en:nutriscore-computed",
      "en:ecoscore-missing-data-warning",
      "en:ecoscore-computed",
      "en:ecoscore-extended-data-not-computed"
    ],
    "no_nutrition_data": "",
    "nova_group_debug": "no nova group when the product does not have ingredients",
    "nova_group_tags": [
      "not-applicable"
    ],
    "nucleotides_prev_tags": [],
    "nucleotides_tags": [],
    "nutrient_levels": {
      "fat": "low",
      "salt": "low",
      "saturated-fat": "low",
      "sugars": "moderate"
    },
    "nutrient_levels_tags": [
      "en:fat-in-low-quantity",
      "en:saturated-fat-in-low-quantity",
      "en:sugars-in-moderate-quantity",
      "en:salt-in-low-quantity"
    ],
    "nutriments": {
      "carbohydrates": 4.5,
      "carbohydrates_100g": 4.5,
      "carbohydrates_unit": "g",
      "carbohydrates_value": 4.5,
      "energy": 83,
      "energy-kcal": 19,
      "energy-kcal_100g": 19,
      "energy-kcal_unit": "kcal",
      "energy-kcal_value": 19,
      "energy-kj": 83,
      "energy-kj_100g": 83,
      "energy-kj_unit": "kJ",
      "energy-kj_value": 83,
      "energy_100g": 83,
      "energy_unit": "kJ",
      "energy_value": 83,
      "fat": 0,
      "fat_100g": 0,
      "fat_unit": "g",
      "fat_value": 0,
      "fiber": 0,
      "fiber_100g": 0,
      "fiber_unit": "g",
      "fiber_value": 0,
      "fruits-vegetables-nuts-estimate": 0,
      "fruits-vegetables-nuts-estimate_100g": 0,
      "fruits-vegetables-nuts-estimate_label": "0",
      "fruits-vegetables-nuts-estimate_serving": 0,
      "fruits-vegetables-nuts-estimate_unit": "g",
      "fruits-vegetables-nuts-estimate_value": 0,
      "nutrition-score-fr": 6,
      "nutrition-score-fr_100g": 6,
      "proteins": 0,
      "proteins_100g": 0,
      "proteins_unit": "g",
      "proteins_value": 0,
      "salt": 0.090000003576279,
      "salt_100g": 0.090000003576279,
      "salt_unit": "g",
      "salt_value": 0.090000003576279,
      "saturated-fat": 0,
      "saturated-fat_100g": 0,
      "saturated-fat_unit": "g",
      "saturated-fat_value": 0,
      "sodium": 0.0360000014305116,
      "sodium_100g": 0.0360000014305116,
      "sodium_unit": "g",
      "sodium_value": 0.0360000014305116,
      "sugars": 4.4000000953674,
      "sugars_100g": 4.4000000953674,
      "sugars_unit": "g",
      "sugars_value": 4.4000000953674
    },
    "nutriscore_data": {
      "energy": 83,
      "energy_points": 3,
      "energy_value": 83,
      "fiber": 0,
      "fiber_points": 0,
      "fiber_value": 0,
      "fruits_vegetables_nuts_colza_walnut_olive_oils": 0,
      "fruits_vegetables_nuts_colza_walnut_olive_oils_points": 0,
      "fruits_vegetables_nuts_colza_walnut_olive_oils_value": 0,
      "grade": "d",
      "is_beverage": 1,
      "is_cheese": 0,
      "is_fat": 0,
      "is_water": 0,
      "negative_points": 6,
      "positive_points": 0,
      "proteins": 0,
      "proteins_points": 0,
      "proteins_value": 0,
      "saturated_fat": 0,
      "saturated_fat_points": 0,
      "saturated_fat_ratio": 0,
      "saturated_fat_ratio_points": 0,
      "saturated_fat_ratio_value": 0,
      "saturated_fat_value": 0,
      "score": 6,
      "sodium": 36.0000014305116,
      "sodium_points": 0,
      "sodium_value": 36,
      "sugars": 4.4000000953674,
      "sugars_points": 3,
      "sugars_value": 4.4
    },
    "nutriscore_grade": "d",
    "nutriscore_score": 6,
    "nutriscore_score_opposite": -6,
    "nutrition_data": "on",
    "nutrition_data_per": "100g",
    "nutrition_data_prepared": "",
    "nutrition_data_prepared_per": "100g",
    "nutrition_grade_fr": "d",
    "nutrition_grades": "d",
    "nutrition_grades_tags": [
      "d"
    ],
    "nutrition_score_beverage": 1,
    "nutrition_score_warning_fruits_vegetables_nuts_estimate": 1,
    "origins": "",
    "origins_hierarchy": [],
    "origins_lc": "fr",
    "origins_old": "",
    "origins_tags": [],
    "other_nutritional_substances_tags": [],
    "packaging": "",
    "packaging_tags": [],
    "packagings": [],
    "photographers_tags": [
      "kiliweb"
    ],
    "pnns_groups_1": "Beverages",
    "pnns_groups_1_tags": [
      "beverages",
      "known"
    ],
    "pnns_groups_2": "Artificially sweetened beverages",
    "pnns_groups_2_tags": [
      "artificially-sweetened-beverages",
      "known"
    ],
    "popularity_key": 19900000013,
    "popularity_tags": [
      "top-100000-scans-2019",
      "at-least-5-scans-2019",
      "at-least-10-scans-2019",
      "top-75-percent-scans-2019",
      "top-80-percent-scans-2019",
      "top-85-percent-scans-2019",
      "top-90-percent-scans-2019",
      "top-5000-ch-scans-2019",
      "top-10000-ch-scans-2019",
      "top-50000-ch-scans-2019",
      "top-100000-ch-scans-2019",
      "top-country-ch-scans-2019",
      "at-least-5-ch-scans-2019",
      "at-least-10-ch-scans-2019",
      "top-50000-de-scans-2019",
      "top-100000-de-scans-2019",
      "top-100000-scans-2020",
      "at-least-5-scans-2020",
      "top-75-percent-scans-2020",
      "top-80-percent-scans-2020",
      "top-85-percent-scans-2020",
      "top-90-percent-scans-2020",
      "top-5000-ch-scans-2020",
      "top-10000-ch-scans-2020",
      "top-50000-ch-scans-2020",
      "top-100000-ch-scans-2020",
      "top-country-ch-scans-2020",
      "at-least-5-ch-scans-2020"
    ],
    "product_name": "Nestea lemon",
    "product_name_fr": "Nestea lemon",
    "product_quantity": "500",
    "purchase_places": "",
    "purchase_places_tags": [],
    "quantity": "50 cl",
    "removed_countries_tags": [],
    "rev": 37,
    "scans_n": 16,
    "selected_images": {
      "front": {
        "display": {
          "fr": "https://images.openfoodfacts.org/images/products/761/303/634/7419/front_fr.22.400.jpg"
        },
        "small": {
          "fr": "https://images.openfoodfacts.org/images/products/761/303/634/7419/front_fr.22.200.jpg"
        },
        "thumb": {
          "fr": "https://images.openfoodfacts.org/images/products/761/303/634/7419/front_fr.22.100.jpg"
        }
      },
      "ingredients": {
        "display": {
          "fr": "https://images.openfoodfacts.org/images/products/761/303/634/7419/ingredients_fr.9.400.jpg"
        },
        "small": {
          "fr": "https://images.openfoodfacts.org/images/products/761/303/634/7419/ingredients_fr.9.200.jpg"
        },
        "thumb": {
          "fr": "https://images.openfoodfacts.org/images/products/761/303/634/7419/ingredients_fr.9.100.jpg"
        }
      },
      "nutrition": {
        "display": {
          "fr": "https://images.openfoodfacts.org/images/products/761/303/634/7419/nutrition_fr.37.400.jpg"
        },
        "small": {
          "fr": "https://images.openfoodfacts.org/images/products/761/303/634/7419/nutrition_fr.37.200.jpg"
        },
        "thumb": {
          "fr": "https://images.openfoodfacts.org/images/products/761/303/634/7419/nutrition_fr.37.100.jpg"
        }
      }
    },
    "sortkey": 1595945372,
    "states": "en:to-be-completed, en:nutrition-facts-completed, en:ingredients-to-be-completed, en:expiration-date-to-be-completed, en:packaging-code-to-be-completed, en:characteristics-to-be-completed, en:categories-completed, en:brands-completed, en:packaging-to-be-completed, en:quantity-completed, en:product-name-completed, en:photos-validated, en:photos-uploaded",
    "states_hierarchy": [
      "en:to-be-completed",
      "en:nutrition-facts-completed",
      "en:ingredients-to-be-completed",
      "en:expiration-date-to-be-completed",
      "en:packaging-code-to-be-completed",
      "en:characteristics-to-be-completed",
      "en:categories-completed",
      "en:brands-completed",
      "en:packaging-to-be-completed",
      "en:quantity-completed",
      "en:product-name-completed",
      "en:photos-validated",
      "en:photos-uploaded"
    ],
    "states_tags": [
      "en:to-be-completed",
      "en:nutrition-facts-completed",
      "en:ingredients-to-be-completed",
      "en:expiration-date-to-be-completed",
      "en:packaging-code-to-be-completed",
      "en:characteristics-to-be-completed",
      "en:categories-completed",
      "en:brands-completed",
      "en:packaging-to-be-completed",
      "en:quantity-completed",
      "en:product-name-completed",
      "en:photos-validated",
      "en:photos-uploaded"
    ],
    "stores": "",
    "stores_tags": [],
    "traces": "",
    "traces_from_ingredients": "",
    "traces_from_user": "(fr) ",
    "traces_hierarchy": [],
    "traces_lc": "fr",
    "traces_tags": [],
    "unique_scans_n": 9,
    "unknown_nutrients_tags": [],
    "update_key": "eco1",
    "vitamins_prev_tags": [],
    "vitamins_tags": []
  },
  "status": 1,
  "status_verbose": "product found"
}