﻿{
  "code": "7613404541104",
  "product": {
    "_id": "7613404541104",
    "_keywords": [
      "muesli",
      "choco",
      "banane"
    ],
    "added_countries_tags": [],
    "allergens": "",
    "allergens_from_ingredients": "",
    "allergens_from_user": "(fr) ",
    "allergens_hierarchy": [],
    "allergens_tags": [],
    "categories_properties": {},
    "categories_properties_tags": [
      "all-products",
      "categories-unknown",
      "agribalyse-food-code-unknown",
      "agribalyse-proxy-food-code-unknown",
      "ciqual-food-code-unknown",
      "agribalyse-unknown"
    ],
    "checkers_tags": [],
    "code": "7613404541104",
    "codes_tags": [
      "code-13",
      "7613404541xxx",
      "761340454xxxx",
      "76134045xxxxx",
      "7613404xxxxxx",
      "761340xxxxxxx",
      "76134xxxxxxxx",
      "7613xxxxxxxxx",
      "761xxxxxxxxxx",
      "76xxxxxxxxxxx",
      "7xxxxxxxxxxxx"
    ],
    "complete": 0,
    "completeness": 0.275,
    "correctors_tags": [],
    "countries": "en:ch",
    "countries_hierarchy": [
      "en:switzerland"
    ],
    "countries_tags": [
      "en:switzerland"
    ],
    "created_t": 1621447328,
    "creator": "kiliweb",
    "data_quality_bugs_tags": [],
    "data_quality_errors_tags": [],
    "data_quality_info_tags": [
      "en:no-packaging-data"
    ],
    "data_quality_tags": [
      "en:no-packaging-data",
      "en:ecoscore-origins-of-ingredients-origins-are-100-percent-unknown",
      "en:ecoscore-packaging-packaging-data-missing",
      "en:ecoscore-production-system-no-label",
      "en:ecoscore-threatened-species-ingredients-missing"
    ],
    "data_quality_warnings_tags": [
      "en:ecoscore-origins-of-ingredients-origins-are-100-percent-unknown",
      "en:ecoscore-packaging-packaging-data-missing",
      "en:ecoscore-production-system-no-label",
      "en:ecoscore-threatened-species-ingredients-missing"
    ],
    "data_sources": "App - yuka, Apps",
    "data_sources_tags": [
      "app-yuka",
      "apps"
    ],
    "ecoscore_data": {
      "adjustments": {
        "origins_of_ingredients": {
          "aggregated_origins": [
            {
              "origin": "en:unknown",
              "percent": 100
            }
          ],
          "epi_score": 0,
          "epi_value": -5,
          "origins_from_origins_field": [
            "en:unknown"
          ],
          "transportation_scores": {
            "ad": 0,
            "al": 0,
            "at": 0,
            "ax": 0,
            "ba": 0,
            "be": 0,
            "bg": 0,
            "ch": 0,
            "cy": 0,
            "cz": 0,
            "de": 0,
            "dk": 0,
            "dz": 0,
            "ee": 0,
            "eg": 0,
            "es": 0,
            "fi": 0,
            "fo": 0,
            "fr": 0,
            "gg": 0,
            "gi": 0,
            "gr": 0,
            "hr": 0,
            "hu": 0,
            "ie": 0,
            "il": 0,
            "im": 0,
            "is": 0,
            "it": 0,
            "je": 0,
            "lb": 0,
            "li": 0,
            "lt": 0,
            "lu": 0,
            "lv": 0,
            "ly": 0,
            "ma": 0,
            "mc": 0,
            "md": 0,
            "me": 0,
            "mk": 0,
            "mt": 0,
            "nl": 0,
            "no": 0,
            "pl": 0,
            "ps": 0,
            "pt": 0,
            "ro": 0,
            "rs": 0,
            "se": 0,
            "si": 0,
            "sj": 0,
            "sk": 0,
            "sm": 0,
            "sy": 0,
            "tn": 0,
            "tr": 0,
            "ua": 0,
            "uk": 0,
            "us": 0,
            "va": 0,
            "xk": 0
          },
          "transportation_values": {
            "ad": 0,
            "al": 0,
            "at": 0,
            "ax": 0,
            "ba": 0,
            "be": 0,
            "bg": 0,
            "ch": 0,
            "cy": 0,
            "cz": 0,
            "de": 0,
            "dk": 0,
            "dz": 0,
            "ee": 0,
            "eg": 0,
            "es": 0,
            "fi": 0,
            "fo": 0,
            "fr": 0,
            "gg": 0,
            "gi": 0,
            "gr": 0,
            "hr": 0,
            "hu": 0,
            "ie": 0,
            "il": 0,
            "im": 0,
            "is": 0,
            "it": 0,
            "je": 0,
            "lb": 0,
            "li": 0,
            "lt": 0,
            "lu": 0,
            "lv": 0,
            "ly": 0,
            "ma": 0,
            "mc": 0,
            "md": 0,
            "me": 0,
            "mk": 0,
            "mt": 0,
            "nl": 0,
            "no": 0,
            "pl": 0,
            "ps": 0,
            "pt": 0,
            "ro": 0,
            "rs": 0,
            "se": 0,
            "si": 0,
            "sj": 0,
            "sk": 0,
            "sm": 0,
            "sy": 0,
            "tn": 0,
            "tr": 0,
            "ua": 0,
            "uk": 0,
            "us": 0,
            "va": 0,
            "xk": 0
          },
          "values": {
            "ad": -5,
            "al": -5,
            "at": -5,
            "ax": -5,
            "ba": -5,
            "be": -5,
            "bg": -5,
            "ch": -5,
            "cy": -5,
            "cz": -5,
            "de": -5,
            "dk": -5,
            "dz": -5,
            "ee": -5,
            "eg": -5,
            "es": -5,
            "fi": -5,
            "fo": -5,
            "fr": -5,
            "gg": -5,
            "gi": -5,
            "gr": -5,
            "hr": -5,
            "hu": -5,
            "ie": -5,
            "il": -5,
            "im": -5,
            "is": -5,
            "it": -5,
            "je": -5,
            "lb": -5,
            "li": -5,
            "lt": -5,
            "lu": -5,
            "lv": -5,
            "ly": -5,
            "ma": -5,
            "mc": -5,
            "md": -5,
            "me": -5,
            "mk": -5,
            "mt": -5,
            "nl": -5,
            "no": -5,
            "pl": -5,
            "ps": -5,
            "pt": -5,
            "ro": -5,
            "rs": -5,
            "se": -5,
            "si": -5,
            "sj": -5,
            "sk": -5,
            "sm": -5,
            "sy": -5,
            "tn": -5,
            "tr": -5,
            "ua": -5,
            "uk": -5,
            "us": -5,
            "va": -5,
            "xk": -5
          },
          "warning": "origins_are_100_percent_unknown"
        },
        "packaging": {
          "non_recyclable_and_non_biodegradable_materials": 1,
          "value": -15,
          "warning": "packaging_data_missing"
        },
        "production_system": {
          "labels": [],
          "value": 0,
          "warning": "no_label"
        },
        "threatened_species": {
          "warning": "ingredients_missing"
        }
      },
      "agribalyse": {
        "warning": "missing_agribalyse_match"
      },
      "missing": {
        "categories": 1,
        "ingredients": 1,
        "labels": 1,
        "origins": 1,
        "packagings": 1
      },
      "missing_agribalyse_match_warning": 1,
      "status": "unknown"
    },
    "ecoscore_grade": "unknown",
    "ecoscore_tags": [
      "unknown"
    ],
    "editors_tags": [
      "yuka.sY2b0xO6T85zoF3NwEKvln13VcLZiRafMBv4yGyx5dqoKIPYYf5K4aPxEas",
      "kiliweb",
      "yuka.sY2b0xO6T85zoF3NwEKvlkN_A9jEkAndaDftv2ygm_mrf4HQQu93vK_FM6g"
    ],
    "entry_dates_tags": [
      "2021-05-19",
      "2021-05",
      "2021"
    ],
    "id": "7613404541104",
    "image_front_small_url": "https://images.openfoodfacts.org/images/products/761/340/454/1104/front_fr.3.200.jpg",
    "image_front_thumb_url": "https://images.openfoodfacts.org/images/products/761/340/454/1104/front_fr.3.100.jpg",
    "image_front_url": "https://images.openfoodfacts.org/images/products/761/340/454/1104/front_fr.3.400.jpg",
    "image_nutrition_small_url": "https://images.openfoodfacts.org/images/products/761/340/454/1104/nutrition_fr.6.200.jpg",
    "image_nutrition_thumb_url": "https://images.openfoodfacts.org/images/products/761/340/454/1104/nutrition_fr.6.100.jpg",
    "image_nutrition_url": "https://images.openfoodfacts.org/images/products/761/340/454/1104/nutrition_fr.6.400.jpg",
    "image_small_url": "https://images.openfoodfacts.org/images/products/761/340/454/1104/front_fr.3.200.jpg",
    "image_thumb_url": "https://images.openfoodfacts.org/images/products/761/340/454/1104/front_fr.3.100.jpg",
    "image_url": "https://images.openfoodfacts.org/images/products/761/340/454/1104/front_fr.3.400.jpg",
    "images": {
      "1": {
        "sizes": {
          "100": {
            "h": 100,
            "w": 75
          },
          "400": {
            "h": 400,
            "w": 300
          },
          "full": {
            "h": 1200,
            "w": 899
          }
        },
        "uploaded_t": 1621447329,
        "uploader": "kiliweb"
      },
      "2": {
        "sizes": {
          "100": {
            "h": 57,
            "w": 100
          },
          "400": {
            "h": 228,
            "w": 400
          },
          "full": {
            "h": 427,
            "w": 749
          }
        },
        "uploaded_t": 1634373990,
        "uploader": "kiliweb"
      },
      "front_fr": {
        "angle": 0,
        "coordinates_image_size": "full",
        "geometry": "0x0--1--1",
        "imgid": "1",
        "normalize": null,
        "rev": "3",
        "sizes": {
          "100": {
            "h": 100,
            "w": 75
          },
          "200": {
            "h": 200,
            "w": 150
          },
          "400": {
            "h": 400,
            "w": 300
          },
          "full": {
            "h": 1200,
            "w": 899
          }
        },
        "white_magic": null,
        "x1": "-1",
        "x2": "-1",
        "y1": "-1",
        "y2": "-1"
      },
      "nutrition_fr": {
        "angle": 0,
        "coordinates_image_size": "full",
        "geometry": "0x0--1--1",
        "imgid": "2",
        "normalize": null,
        "rev": "6",
        "sizes": {
          "100": {
            "h": 57,
            "w": 100
          },
          "200": {
            "h": 114,
            "w": 200
          },
          "400": {
            "h": 228,
            "w": 400
          },
          "full": {
            "h": 427,
            "w": 749
          }
        },
        "white_magic": null,
        "x1": "-1",
        "x2": "-1",
        "y1": "-1",
        "y2": "-1"
      }
    },
    "informers_tags": [
      "yuka.sY2b0xO6T85zoF3NwEKvlkN_A9jEkAndaDftv2ygm_mrf4HQQu93vK_FM6g",
      "kiliweb",
      "yuka.sY2b0xO6T85zoF3NwEKvln13VcLZiRafMBv4yGyx5dqoKIPYYf5K4aPxEas"
    ],
    "interface_version_created": "20150316.jqm2",
    "interface_version_modified": "20150316.jqm2",
    "lang": "fr",
    "languages": {
      "en:french": 3
    },
    "languages_codes": {
      "fr": 3
    },
    "languages_hierarchy": [
      "en:french"
    ],
    "languages_tags": [
      "en:french",
      "en:1"
    ],
    "last_edit_dates_tags": [
      "2021-10-16",
      "2021-10",
      "2021"
    ],
    "last_editor": "kiliweb",
    "last_image_dates_tags": [
      "2021-10-16",
      "2021-10",
      "2021"
    ],
    "last_image_t": 1634373990,
    "last_modified_by": "kiliweb",
    "last_modified_t": 1634373990,
    "lc": "fr",
    "main_countries_tags": [],
    "max_imgid": "2",
    "misc_tags": [
      "en:nutriscore-not-computed",
      "en:nutriscore-missing-category",
      "en:ecoscore-not-computed",
      "en:main-countries-new-product",
      "en:ecoscore-extended-data-not-computed"
    ],
    "nova_group_debug": "no nova group when the product does not have ingredients",
    "nova_group_tags": [
      "not-applicable"
    ],
    "nutrient_levels": {},
    "nutrient_levels_tags": [],
    "nutriments": {
      "carbohydrates": 18,
      "carbohydrates_100g": 18,
      "carbohydrates_unit": "g",
      "carbohydrates_value": 18,
      "energy": 548,
      "energy-kcal": 131,
      "energy-kcal_100g": 131,
      "energy-kcal_unit": "kcal",
      "energy-kcal_value": 131,
      "energy_100g": 548,
      "energy_unit": "kcal",
      "energy_value": 131,
      "fat": 4.9,
      "fat_100g": 4.9,
      "fat_unit": "g",
      "fat_value": 4.9,
      "proteins": 3.5,
      "proteins_100g": 3.5,
      "proteins_unit": "g",
      "proteins_value": 3.5,
      "salt": 0.1,
      "salt_100g": 0.1,
      "salt_unit": "g",
      "salt_value": 0.1,
      "saturated-fat": 2.9,
      "saturated-fat_100g": 2.9,
      "saturated-fat_unit": "g",
      "saturated-fat_value": 2.9,
      "sodium": 0.04,
      "sodium_100g": 0.04,
      "sodium_unit": "g",
      "sodium_value": 0.04,
      "sugars": 16,
      "sugars_100g": 16,
      "sugars_unit": "g",
      "sugars_value": 16
    },
    "nutrition_data_per": "100g",
    "nutrition_data_prepared_per": "100g",
    "nutrition_grades_tags": [
      "unknown"
    ],
    "nutrition_score_debug": "no score when the product does not have a category",
    "packagings": [],
    "photographers_tags": [
      "kiliweb"
    ],
    "pnns_groups_1": "unknown",
    "pnns_groups_1_tags": [
      "unknown",
      "missing-category"
    ],
    "pnns_groups_2": "unknown",
    "pnns_groups_2_tags": [
      "unknown",
      "missing-category"
    ],
    "popularity_key": 12,
    "product_name": "Banane choco müesli",
    "product_name_fr": "Banane choco müesli",
    "removed_countries_tags": [],
    "rev": 6,
    "selected_images": {
      "front": {
        "display": {
          "fr": "https://images.openfoodfacts.org/images/products/761/340/454/1104/front_fr.3.400.jpg"
        },
        "small": {
          "fr": "https://images.openfoodfacts.org/images/products/761/340/454/1104/front_fr.3.200.jpg"
        },
        "thumb": {
          "fr": "https://images.openfoodfacts.org/images/products/761/340/454/1104/front_fr.3.100.jpg"
        }
      },
      "nutrition": {
        "display": {
          "fr": "https://images.openfoodfacts.org/images/products/761/340/454/1104/nutrition_fr.6.400.jpg"
        },
        "small": {
          "fr": "https://images.openfoodfacts.org/images/products/761/340/454/1104/nutrition_fr.6.200.jpg"
        },
        "thumb": {
          "fr": "https://images.openfoodfacts.org/images/products/761/340/454/1104/nutrition_fr.6.100.jpg"
        }
      }
    },
    "states": "en:to-be-completed, en:nutrition-facts-completed, en:ingredients-to-be-completed, en:expiration-date-to-be-completed, en:packaging-code-to-be-completed, en:characteristics-to-be-completed, en:origins-to-be-completed, en:categories-to-be-completed, en:brands-to-be-completed, en:packaging-to-be-completed, en:quantity-to-be-completed, en:product-name-completed, en:photos-to-be-validated, en:packaging-photo-to-be-selected, en:nutrition-photo-selected, en:ingredients-photo-to-be-selected, en:front-photo-selected, en:photos-uploaded",
    "states_hierarchy": [
      "en:to-be-completed",
      "en:nutrition-facts-completed",
      "en:ingredients-to-be-completed",
      "en:expiration-date-to-be-completed",
      "en:packaging-code-to-be-completed",
      "en:characteristics-to-be-completed",
      "en:origins-to-be-completed",
      "en:categories-to-be-completed",
      "en:brands-to-be-completed",
      "en:packaging-to-be-completed",
      "en:quantity-to-be-completed",
      "en:product-name-completed",
      "en:photos-to-be-validated",
      "en:packaging-photo-to-be-selected",
      "en:nutrition-photo-selected",
      "en:ingredients-photo-to-be-selected",
      "en:front-photo-selected",
      "en:photos-uploaded"
    ],
    "states_tags": [
      "en:to-be-completed",
      "en:nutrition-facts-completed",
      "en:ingredients-to-be-completed",
      "en:expiration-date-to-be-completed",
      "en:packaging-code-to-be-completed",
      "en:characteristics-to-be-completed",
      "en:origins-to-be-completed",
      "en:categories-to-be-completed",
      "en:brands-to-be-completed",
      "en:packaging-to-be-completed",
      "en:quantity-to-be-completed",
      "en:product-name-completed",
      "en:photos-to-be-validated",
      "en:packaging-photo-to-be-selected",
      "en:nutrition-photo-selected",
      "en:ingredients-photo-to-be-selected",
      "en:front-photo-selected",
      "en:photos-uploaded"
    ],
    "traces": "",
    "traces_from_ingredients": "",
    "traces_from_user": "(fr) ",
    "traces_hierarchy": [],
    "traces_tags": [],
    "unknown_nutrients_tags": [],
    "update_key": "eco1"
  },
  "status": 1,
  "status_verbose": "product found"
}