﻿{
  "code": "9002975319515",
  "product": {
    "_id": "9002975319515",
    "_keywords": [
      "bonbon",
      "saure",
      "süßer",
      "imbis",
      "fruchtgummi",
      "snack",
      "haribo",
      "süßwaren",
      "happy",
      "gummibonbon",
      "cola"
    ],
    "added_countries_tags": [],
    "additives_debug_tags": [],
    "additives_n": 6,
    "additives_old_n": 1,
    "additives_old_tags": [
      "en:e428"
    ],
    "additives_original_tags": [
      "en:e428",
      "en:e330",
      "en:e296",
      "en:e350ii",
      "en:e333iii",
      "en:e903"
    ],
    "additives_prev_original_tags": [],
    "additives_tags": [
      "en:e296",
      "en:e330",
      "en:e333",
      "en:e333iii",
      "en:e350",
      "en:e350ii",
      "en:e428",
      "en:e903"
    ],
    "allergens": "",
    "allergens_from_ingredients": "",
    "allergens_from_user": "(de) ",
    "allergens_hierarchy": [],
    "allergens_lc": "de",
    "allergens_tags": [],
    "amino_acids_prev_tags": [],
    "amino_acids_tags": [],
    "brands": "Haribo",
    "brands_tags": [
      "haribo"
    ],
    "categories": "Imbiss, Süßer Snack, Süßwaren, Bonbons, Gummibonbons, Saure Gummibonbons, Fruchtgummi",
    "categories_hierarchy": [
      "en:snacks",
      "en:sweet-snacks",
      "en:confectioneries",
      "en:candies",
      "en:gummi-candies",
      "en:acid-gummy-candies",
      "de:Fruchtgummi"
    ],
    "categories_lc": "de",
    "categories_old": "Imbiss, Süßer Snack, Süßwaren, Bonbons, Gummibonbons, Saure Gummibonbons, Fruchtgummi",
    "categories_properties": {
      "agribalyse_food_code:en": "31060",
      "ciqual_food_code:en": "31060"
    },
    "categories_properties_tags": [
      "all-products",
      "categories-known",
      "agribalyse-food-code-31060",
      "agribalyse-food-code-known",
      "agribalyse-proxy-food-code-unknown",
      "ciqual-food-code-31060",
      "ciqual-food-code-known",
      "agribalyse-known",
      "agribalyse-31060"
    ],
    "categories_tags": [
      "en:snacks",
      "en:sweet-snacks",
      "en:confectioneries",
      "en:candies",
      "en:gummi-candies",
      "en:acid-gummy-candies",
      "de:fruchtgummi"
    ],
    "category_properties": {},
    "checkers_tags": [],
    "ciqual_food_name_tags": [
      "unknown"
    ],
    "cities_tags": [],
    "code": "9002975319515",
    "codes_tags": [
      "code-13",
      "9002975319xxx",
      "900297531xxxx",
      "90029753xxxxx",
      "9002975xxxxxx",
      "900297xxxxxxx",
      "90029xxxxxxxx",
      "9002xxxxxxxxx",
      "900xxxxxxxxxx",
      "90xxxxxxxxxxx",
      "9xxxxxxxxxxxx"
    ],
    "compared_to_category": "de:fruchtgummi",
    "complete": 0,
    "completeness": 1,
    "correctors_tags": [
      "openfoodfacts-contributors",
      "yuka.Wm84d0V2bytvT0V1bWM5ajIwM3I5OHRZOXNLV1VUaTJKdE5PSUE9PQ",
      "logiclinux",
      "hangy",
      "scanbot",
      "pyrka",
      "date-limite-app",
      "yuka.U6gfDtiyG-wFB93Y4IYN7WOCK-q4PNsEKlELoQ",
      "kiliweb",
      "vaporous",
      "rochus"
    ],
    "countries": "Frankreich,Deutschland",
    "countries_beforescanbot": "France",
    "countries_hierarchy": [
      "en:france",
      "en:germany"
    ],
    "countries_lc": "de",
    "countries_tags": [
      "en:france",
      "en:germany"
    ],
    "created_t": 1512473824,
    "creator": "kiliweb",
    "data_quality_bugs_tags": [],
    "data_quality_errors_tags": [],
    "data_quality_info_tags": [
      "en:packaging-data-incomplete",
      "en:ingredients-percent-analysis-ok"
    ],
    "data_quality_tags": [
      "en:packaging-data-incomplete",
      "en:ingredients-percent-analysis-ok",
      "en:ecoscore-origins-of-ingredients-origins-are-100-percent-unknown",
      "en:ecoscore-packaging-unspecified-material",
      "en:ecoscore-production-system-no-label"
    ],
    "data_quality_warnings_tags": [
      "en:ecoscore-origins-of-ingredients-origins-are-100-percent-unknown",
      "en:ecoscore-packaging-unspecified-material",
      "en:ecoscore-production-system-no-label"
    ],
    "data_sources": "App - yuka, Apps",
    "data_sources_tags": [
      "app-yuka",
      "apps"
    ],
    "debug_param_sorted_langs": [
      "de",
      "fr",
      "pl"
    ],
    "ecoscore_data": {
      "adjustments": {
        "origins_of_ingredients": {
          "aggregated_origins": [
            {
              "origin": "en:unknown",
              "percent": 100
            }
          ],
          "epi_score": 0,
          "epi_value": -5,
          "origins_from_origins_field": [
            "en:unknown"
          ],
          "transportation_scores": {
            "ad": 0,
            "al": 0,
            "at": 0,
            "ax": 0,
            "ba": 0,
            "be": 0,
            "bg": 0,
            "ch": 0,
            "cy": 0,
            "cz": 0,
            "de": 0,
            "dk": 0,
            "dz": 0,
            "ee": 0,
            "eg": 0,
            "es": 0,
            "fi": 0,
            "fo": 0,
            "fr": 0,
            "gg": 0,
            "gi": 0,
            "gr": 0,
            "hr": 0,
            "hu": 0,
            "ie": 0,
            "il": 0,
            "im": 0,
            "is": 0,
            "it": 0,
            "je": 0,
            "lb": 0,
            "li": 0,
            "lt": 0,
            "lu": 0,
            "lv": 0,
            "ly": 0,
            "ma": 0,
            "mc": 0,
            "md": 0,
            "me": 0,
            "mk": 0,
            "mt": 0,
            "nl": 0,
            "no": 0,
            "pl": 0,
            "ps": 0,
            "pt": 0,
            "ro": 0,
            "rs": 0,
            "se": 0,
            "si": 0,
            "sj": 0,
            "sk": 0,
            "sm": 0,
            "sy": 0,
            "tn": 0,
            "tr": 0,
            "ua": 0,
            "uk": 0,
            "us": 0,
            "va": 0,
            "xk": 0
          },
          "transportation_values": {
            "ad": 0,
            "al": 0,
            "at": 0,
            "ax": 0,
            "ba": 0,
            "be": 0,
            "bg": 0,
            "ch": 0,
            "cy": 0,
            "cz": 0,
            "de": 0,
            "dk": 0,
            "dz": 0,
            "ee": 0,
            "eg": 0,
            "es": 0,
            "fi": 0,
            "fo": 0,
            "fr": 0,
            "gg": 0,
            "gi": 0,
            "gr": 0,
            "hr": 0,
            "hu": 0,
            "ie": 0,
            "il": 0,
            "im": 0,
            "is": 0,
            "it": 0,
            "je": 0,
            "lb": 0,
            "li": 0,
            "lt": 0,
            "lu": 0,
            "lv": 0,
            "ly": 0,
            "ma": 0,
            "mc": 0,
            "md": 0,
            "me": 0,
            "mk": 0,
            "mt": 0,
            "nl": 0,
            "no": 0,
            "pl": 0,
            "ps": 0,
            "pt": 0,
            "ro": 0,
            "rs": 0,
            "se": 0,
            "si": 0,
            "sj": 0,
            "sk": 0,
            "sm": 0,
            "sy": 0,
            "tn": 0,
            "tr": 0,
            "ua": 0,
            "uk": 0,
            "us": 0,
            "va": 0,
            "xk": 0
          },
          "values": {
            "ad": -5,
            "al": -5,
            "at": -5,
            "ax": -5,
            "ba": -5,
            "be": -5,
            "bg": -5,
            "ch": -5,
            "cy": -5,
            "cz": -5,
            "de": -5,
            "dk": -5,
            "dz": -5,
            "ee": -5,
            "eg": -5,
            "es": -5,
            "fi": -5,
            "fo": -5,
            "fr": -5,
            "gg": -5,
            "gi": -5,
            "gr": -5,
            "hr": -5,
            "hu": -5,
            "ie": -5,
            "il": -5,
            "im": -5,
            "is": -5,
            "it": -5,
            "je": -5,
            "lb": -5,
            "li": -5,
            "lt": -5,
            "lu": -5,
            "lv": -5,
            "ly": -5,
            "ma": -5,
            "mc": -5,
            "md": -5,
            "me": -5,
            "mk": -5,
            "mt": -5,
            "nl": -5,
            "no": -5,
            "pl": -5,
            "ps": -5,
            "pt": -5,
            "ro": -5,
            "rs": -5,
            "se": -5,
            "si": -5,
            "sj": -5,
            "sk": -5,
            "sm": -5,
            "sy": -5,
            "tn": -5,
            "tr": -5,
            "ua": -5,
            "uk": -5,
            "us": -5,
            "va": -5,
            "xk": -5
          },
          "warning": "origins_are_100_percent_unknown"
        },
        "packaging": {
          "non_recyclable_and_non_biodegradable_materials": 0,
          "packagings": [
            {
              "ecoscore_material_score": 0,
              "ecoscore_shape_ratio": "1",
              "material": "en:unknown",
              "shape": "en:bag"
            }
          ],
          "score": 0,
          "value": -10,
          "warning": "unspecified_material"
        },
        "production_system": {
          "labels": [],
          "value": 0,
          "warning": "no_label"
        },
        "threatened_species": {}
      },
      "agribalyse": {
        "agribalyse_food_code": "31060",
        "co2_agriculture": "2.1277843",
        "co2_consumption": "0",
        "co2_distribution": "0.014104999",
        "co2_packaging": "0.2752397",
        "co2_processing": "0.28750323",
        "co2_total": "2.9115727",
        "co2_transportation": "0.20694049",
        "code": "31060",
        "dqr": "3.64",
        "ef_agriculture": "0.82681788",
        "ef_consumption": "0",
        "ef_distribution": "0.0045906531",
        "ef_packaging": "0.020545657000000002",
        "ef_processing": "0.045350867999999996",
        "ef_total": "0.91567794",
        "ef_transportation": "0.018372886",
        "is_beverage": 0,
        "name_en": "Jelly candy",
        "name_fr": "Bonbon gélifié",
        "score": 34
      },
      "grade": "e",
      "grades": {
        "ad": "e",
        "al": "e",
        "at": "e",
        "ax": "e",
        "ba": "e",
        "be": "e",
        "bg": "e",
        "ch": "e",
        "cy": "e",
        "cz": "e",
        "de": "e",
        "dk": "e",
        "dz": "e",
        "ee": "e",
        "eg": "e",
        "es": "e",
        "fi": "e",
        "fo": "e",
        "fr": "e",
        "gg": "e",
        "gi": "e",
        "gr": "e",
        "hr": "e",
        "hu": "e",
        "ie": "e",
        "il": "e",
        "im": "e",
        "is": "e",
        "it": "e",
        "je": "e",
        "lb": "e",
        "li": "e",
        "lt": "e",
        "lu": "e",
        "lv": "e",
        "ly": "e",
        "ma": "e",
        "mc": "e",
        "md": "e",
        "me": "e",
        "mk": "e",
        "mt": "e",
        "nl": "e",
        "no": "e",
        "pl": "e",
        "ps": "e",
        "pt": "e",
        "ro": "e",
        "rs": "e",
        "se": "e",
        "si": "e",
        "sj": "e",
        "sk": "e",
        "sm": "e",
        "sy": "e",
        "tn": "e",
        "tr": "e",
        "ua": "e",
        "uk": "e",
        "us": "e",
        "va": "e",
        "xk": "e"
      },
      "missing": {
        "labels": 1,
        "origins": 1,
        "packagings": 1
      },
      "missing_data_warning": 1,
      "score": 19,
      "scores": {
        "ad": 19,
        "al": 19,
        "at": 19,
        "ax": 19,
        "ba": 19,
        "be": 19,
        "bg": 19,
        "ch": 19,
        "cy": 19,
        "cz": 19,
        "de": 19,
        "dk": 19,
        "dz": 19,
        "ee": 19,
        "eg": 19,
        "es": 19,
        "fi": 19,
        "fo": 19,
        "fr": 19,
        "gg": 19,
        "gi": 19,
        "gr": 19,
        "hr": 19,
        "hu": 19,
        "ie": 19,
        "il": 19,
        "im": 19,
        "is": 19,
        "it": 19,
        "je": 19,
        "lb": 19,
        "li": 19,
        "lt": 19,
        "lu": 19,
        "lv": 19,
        "ly": 19,
        "ma": 19,
        "mc": 19,
        "md": 19,
        "me": 19,
        "mk": 19,
        "mt": 19,
        "nl": 19,
        "no": 19,
        "pl": 19,
        "ps": 19,
        "pt": 19,
        "ro": 19,
        "rs": 19,
        "se": 19,
        "si": 19,
        "sj": 19,
        "sk": 19,
        "sm": 19,
        "sy": 19,
        "tn": 19,
        "tr": 19,
        "ua": 19,
        "uk": 19,
        "us": 19,
        "va": 19,
        "xk": 19
      },
      "status": "known"
    },
    "ecoscore_grade": "e",
    "ecoscore_score": 19,
    "ecoscore_tags": [
      "e"
    ],
    "editors_tags": [
      "logiclinux",
      "vaporous",
      "yuka.Wm84d0V2bytvT0V1bWM5ajIwM3I5OHRZOXNLV1VUaTJKdE5PSUE9PQ",
      "yuka.WTRjQ0lmb2cvOXczcHMxdnhnbm94c3BvNnJTd2QzNlhkdU5BSUE9PQ",
      "hangy",
      "rochus",
      "openfoodfacts-contributors",
      "kiliweb",
      "scanbot",
      "yuka.U6gfDtiyG-wFB93Y4IYN7WOCK-q4PNsEKlELoQ",
      "yuka.sY2b0xO6T85zoF3NwEKvlnYXcvXspw-fPgHlpUOL2tOiIJzPQ9ErvZboGqo",
      "date-limite-app",
      "pyrka"
    ],
    "emb_codes": "L431-032-19-0435478",
    "emb_codes_orig": "L431-032 19 0435478",
    "emb_codes_tags": [
      "l431-032-19-0435478"
    ],
    "entry_dates_tags": [
      "2017-12-05",
      "2017-12",
      "2017"
    ],
    "environment_impact_level": "",
    "environment_impact_level_tags": [],
    "expiration_date": "12/2021",
    "generic_name": "",
    "generic_name_de": "",
    "generic_name_fr": "",
    "generic_name_pl": "",
    "id": "9002975319515",
    "image_front_small_url": "https://images.openfoodfacts.org/images/products/900/297/531/9515/front_de.44.200.jpg",
    "image_front_thumb_url": "https://images.openfoodfacts.org/images/products/900/297/531/9515/front_de.44.100.jpg",
    "image_front_url": "https://images.openfoodfacts.org/images/products/900/297/531/9515/front_de.44.400.jpg",
    "image_ingredients_small_url": "https://images.openfoodfacts.org/images/products/900/297/531/9515/ingredients_de.45.200.jpg",
    "image_ingredients_thumb_url": "https://images.openfoodfacts.org/images/products/900/297/531/9515/ingredients_de.45.100.jpg",
    "image_ingredients_url": "https://images.openfoodfacts.org/images/products/900/297/531/9515/ingredients_de.45.400.jpg",
    "image_nutrition_small_url": "https://images.openfoodfacts.org/images/products/900/297/531/9515/nutrition_de.46.200.jpg",
    "image_nutrition_thumb_url": "https://images.openfoodfacts.org/images/products/900/297/531/9515/nutrition_de.46.100.jpg",
    "image_nutrition_url": "https://images.openfoodfacts.org/images/products/900/297/531/9515/nutrition_de.46.400.jpg",
    "image_packaging_small_url": "https://images.openfoodfacts.org/images/products/900/297/531/9515/packaging_de.49.200.jpg",
    "image_packaging_thumb_url": "https://images.openfoodfacts.org/images/products/900/297/531/9515/packaging_de.49.100.jpg",
    "image_packaging_url": "https://images.openfoodfacts.org/images/products/900/297/531/9515/packaging_de.49.400.jpg",
    "image_small_url": "https://images.openfoodfacts.org/images/products/900/297/531/9515/front_de.44.200.jpg",
    "image_thumb_url": "https://images.openfoodfacts.org/images/products/900/297/531/9515/front_de.44.100.jpg",
    "image_url": "https://images.openfoodfacts.org/images/products/900/297/531/9515/front_de.44.400.jpg",
    "images": {
      "1": {
        "sizes": {
          "100": {
            "h": 100,
            "w": 75
          },
          "400": {
            "h": 400,
            "w": 300
          },
          "full": {
            "h": 1360,
            "w": 1021
          }
        },
        "uploaded_t": "1512473827",
        "uploader": "kiliweb"
      },
      "10": {
        "sizes": {
          "100": {
            "h": 75,
            "w": 100
          },
          "400": {
            "h": 300,
            "w": 400
          },
          "full": {
            "h": 1200,
            "w": 1600
          }
        },
        "uploaded_t": 1600429447,
        "uploader": "kiliweb"
      },
      "11": {
        "sizes": {
          "100": {
            "h": 100,
            "w": 75
          },
          "400": {
            "h": 400,
            "w": 300
          },
          "full": {
            "h": 1200,
            "w": 901
          }
        },
        "uploaded_t": 1612308143,
        "uploader": "kiliweb"
      },
      "12": {
        "sizes": {
          "100": {
            "h": 75,
            "w": 100
          },
          "400": {
            "h": 300,
            "w": 400
          },
          "full": {
            "h": 1200,
            "w": 1600
          }
        },
        "uploaded_t": 1612308144,
        "uploader": "kiliweb"
      },
      "13": {
        "sizes": {
          "100": {
            "h": 100,
            "w": 79
          },
          "400": {
            "h": 400,
            "w": 317
          },
          "full": {
            "h": 3628,
            "w": 2875
          }
        },
        "uploaded_t": 1614417063,
        "uploader": "rochus"
      },
      "14": {
        "sizes": {
          "100": {
            "h": 100,
            "w": 83
          },
          "400": {
            "h": 400,
            "w": 332
          },
          "full": {
            "h": 3587,
            "w": 2976
          }
        },
        "uploaded_t": 1614417077,
        "uploader": "rochus"
      },
      "2": {
        "sizes": {
          "100": {
            "h": 100,
            "w": 75
          },
          "400": {
            "h": 400,
            "w": 300
          },
          "full": {
            "h": 3263,
            "w": 2448
          }
        },
        "uploaded_t": "1512473829",
        "uploader": "kiliweb"
      },
      "3": {
        "sizes": {
          "100": {
            "h": 100,
            "w": 75
          },
          "400": {
            "h": 400,
            "w": 300
          },
          "full": {
            "h": 1200,
            "w": 901
          }
        },
        "uploaded_t": "1526562754",
        "uploader": "kiliweb"
      },
      "4": {
        "sizes": {
          "100": {
            "h": 100,
            "w": 75
          },
          "400": {
            "h": 400,
            "w": 301
          },
          "full": {
            "h": 3937,
            "w": 2967
          }
        },
        "uploaded_t": 1554630839,
        "uploader": "logiclinux"
      },
      "5": {
        "sizes": {
          "100": {
            "h": 100,
            "w": 75
          },
          "400": {
            "h": 400,
            "w": 300
          },
          "full": {
            "h": 3697,
            "w": 2773
          }
        },
        "uploaded_t": 1582563911,
        "uploader": "pyrka"
      },
      "6": {
        "sizes": {
          "100": {
            "h": 100,
            "w": 78
          },
          "400": {
            "h": 400,
            "w": 312
          },
          "full": {
            "h": 2104,
            "w": 1640
          }
        },
        "uploaded_t": 1582563942,
        "uploader": "pyrka"
      },
      "7": {
        "sizes": {
          "100": {
            "h": 85,
            "w": 100
          },
          "400": {
            "h": 341,
            "w": 400
          },
          "full": {
            "h": 1835,
            "w": 2151
          }
        },
        "uploaded_t": 1582563974,
        "uploader": "pyrka"
      },
      "8": {
        "sizes": {
          "100": {
            "h": 100,
            "w": 75
          },
          "400": {
            "h": 400,
            "w": 301
          },
          "full": {
            "h": 1329,
            "w": 1000
          }
        },
        "uploaded_t": 1584643085,
        "uploader": "date-limite-app"
      },
      "9": {
        "sizes": {
          "100": {
            "h": 100,
            "w": 75
          },
          "400": {
            "h": 400,
            "w": 300
          },
          "full": {
            "h": 1200,
            "w": 900
          }
        },
        "uploaded_t": 1600429447,
        "uploader": "kiliweb"
      },
      "front_de": {
        "angle": "0",
        "coordinates_image_size": "full",
        "geometry": "0x0-0-0",
        "imgid": "13",
        "normalize": "false",
        "rev": "44",
        "sizes": {
          "100": {
            "h": 100,
            "w": 79
          },
          "200": {
            "h": 200,
            "w": 158
          },
          "400": {
            "h": 400,
            "w": 317
          },
          "full": {
            "h": 3628,
            "w": 2875
          }
        },
        "white_magic": "false",
        "x1": "0",
        "x2": "0",
        "y1": "0",
        "y2": "0"
      },
      "front_fr": {
        "angle": null,
        "geometry": "0x0-0-0",
        "imgid": "3",
        "normalize": "0",
        "rev": "11",
        "sizes": {
          "100": {
            "h": 100,
            "w": 75
          },
          "200": {
            "h": 200,
            "w": 150
          },
          "400": {
            "h": 400,
            "w": 300
          },
          "full": {
            "h": 1200,
            "w": 901
          }
        },
        "white_magic": "0",
        "x1": null,
        "x2": null,
        "y1": null,
        "y2": null
      },
      "front_pl": {
        "angle": null,
        "geometry": "0x0-0-0",
        "imgid": "5",
        "normalize": null,
        "rev": "20",
        "sizes": {
          "100": {
            "h": 100,
            "w": 75
          },
          "200": {
            "h": 200,
            "w": 150
          },
          "400": {
            "h": 400,
            "w": 300
          },
          "full": {
            "h": 3697,
            "w": 2773
          }
        },
        "white_magic": null,
        "x1": null,
        "x2": null,
        "y1": null,
        "y2": null
      },
      "ingredients_de": {
        "angle": "0",
        "coordinates_image_size": "full",
        "geometry": "1215x345-1552-1744",
        "imgid": "14",
        "normalize": "false",
        "rev": "45",
        "sizes": {
          "100": {
            "h": 28,
            "w": 100
          },
          "200": {
            "h": 57,
            "w": 200
          },
          "400": {
            "h": 114,
            "w": 400
          },
          "full": {
            "h": 345,
            "w": 1215
          }
        },
        "white_magic": "false",
        "x1": "1552.266992111206",
        "x2": "2767.363242111206",
        "y1": "1744.3282402610778",
        "y2": "2089.5769902610778"
      },
      "ingredients_fr": {
        "angle": null,
        "geometry": "0x0-0-0",
        "imgid": "2",
        "normalize": "0",
        "ocr": 1,
        "orientation": "0",
        "rev": "7",
        "sizes": {
          "100": {
            "h": 100,
            "w": 75
          },
          "200": {
            "h": 200,
            "w": 150
          },
          "400": {
            "h": 400,
            "w": 300
          },
          "full": {
            "h": 3263,
            "w": 2448
          }
        },
        "white_magic": "0",
        "x1": null,
        "x2": null,
        "y1": null,
        "y2": null
      },
      "ingredients_pl": {
        "angle": null,
        "geometry": "0x0-0-0",
        "imgid": "6",
        "normalize": null,
        "rev": "23",
        "sizes": {
          "100": {
            "h": 100,
            "w": 78
          },
          "200": {
            "h": 200,
            "w": 156
          },
          "400": {
            "h": 400,
            "w": 312
          },
          "full": {
            "h": 2104,
            "w": 1640
          }
        },
        "white_magic": null,
        "x1": null,
        "x2": null,
        "y1": null,
        "y2": null
      },
      "nutrition_de": {
        "angle": "0",
        "coordinates_image_size": "full",
        "geometry": "1246x506-1561-406",
        "imgid": "14",
        "normalize": "false",
        "rev": "46",
        "sizes": {
          "100": {
            "h": 41,
            "w": 100
          },
          "200": {
            "h": 81,
            "w": 200
          },
          "400": {
            "h": 162,
            "w": 400
          },
          "full": {
            "h": 506,
            "w": 1246
          }
        },
        "white_magic": "false",
        "x1": "1561.234492111206",
        "x2": "2807.716992111206",
        "y1": "406.15299802780146",
        "y2": "912.8167480278014"
      },
      "nutrition_fr": {
        "angle": null,
        "geometry": "0x0-0-0",
        "imgid": "1",
        "normalize": "0",
        "ocr": 1,
        "orientation": "0",
        "rev": "4",
        "sizes": {
          "100": {
            "h": 100,
            "w": 75
          },
          "200": {
            "h": 200,
            "w": 150
          },
          "400": {
            "h": 400,
            "w": 300
          },
          "full": {
            "h": 1360,
            "w": 1021
          }
        },
        "white_magic": "0",
        "x1": null,
        "x2": null,
        "y1": null,
        "y2": null
      },
      "nutrition_pl": {
        "angle": null,
        "geometry": "0x0-0-0",
        "imgid": "7",
        "normalize": null,
        "rev": "27",
        "sizes": {
          "100": {
            "h": 85,
            "w": 100
          },
          "200": {
            "h": 171,
            "w": 200
          },
          "400": {
            "h": 341,
            "w": 400
          },
          "full": {
            "h": 1835,
            "w": 2151
          }
        },
        "white_magic": null,
        "x1": null,
        "x2": null,
        "y1": null,
        "y2": null
      },
      "packaging_de": {
        "angle": "0",
        "coordinates_image_size": "full",
        "geometry": "556x224-1525-3180",
        "imgid": "14",
        "normalize": "false",
        "rev": "49",
        "sizes": {
          "100": {
            "h": 40,
            "w": 100
          },
          "200": {
            "h": 81,
            "w": 200
          },
          "400": {
            "h": 161,
            "w": 400
          },
          "full": {
            "h": 224,
            "w": 556
          }
        },
        "white_magic": "false",
        "x1": "1525.364492111206",
        "x2": "2081.349492111206",
        "y1": "3180.0249765777585",
        "y2": "3404.2124765777585"
      }
    },
    "informers_tags": [
      "yuka.WTRjQ0lmb2cvOXczcHMxdnhnbm94c3BvNnJTd2QzNlhkdU5BSUE9PQ",
      "kiliweb",
      "yuka.Wm84d0V2bytvT0V1bWM5ajIwM3I5OHRZOXNLV1VUaTJKdE5PSUE9PQ",
      "logiclinux",
      "hangy",
      "pyrka",
      "rochus"
    ],
    "ingredients": [
      {
        "id": "en:glucose-syrup",
        "percent_estimate": 54.5454545454545,
        "percent_max": 100,
        "percent_min": 9.09090909090909,
        "text": "Glukosesirup",
        "vegan": "yes",
        "vegetarian": "yes"
      },
      {
        "id": "en:sugar",
        "percent_estimate": 22.7272727272727,
        "percent_max": 50,
        "percent_min": 0,
        "text": "Zucker",
        "vegan": "yes",
        "vegetarian": "yes"
      },
      {
        "id": "en:starch",
        "percent_estimate": 11.3636363636364,
        "percent_max": 33.3333333333333,
        "percent_min": 0,
        "text": "Stärke",
        "vegan": "yes",
        "vegetarian": "yes"
      },
      {
        "id": "en:e428",
        "percent_estimate": 5.68181818181818,
        "percent_max": 25,
        "percent_min": 0,
        "text": "Gelatine",
        "vegan": "no",
        "vegetarian": "no"
      },
      {
        "id": "en:acid",
        "ingredients": [
          {
            "id": "en:e330",
            "percent_estimate": 2.84090909090909,
            "percent_max": 20,
            "percent_min": 0,
            "text": "Citronensäure",
            "vegan": "yes",
            "vegetarian": "yes"
          }
        ],
        "percent_estimate": 2.84090909090909,
        "percent_max": 20,
        "percent_min": 0,
        "text": "Säuerungsmittel"
      },
      {
        "id": "en:e296",
        "percent_estimate": 1.42045454545455,
        "percent_max": 16.6666666666667,
        "percent_min": 0,
        "text": "Äpfelsäure",
        "vegan": "yes",
        "vegetarian": "yes"
      },
      {
        "id": "en:acidity-regulator",
        "ingredients": [
          {
            "id": "en:e350ii",
            "percent_estimate": 0.710227272727273,
            "percent_max": 14.2857142857143,
            "percent_min": 0,
            "text": "Natriumhydrogenmalat",
            "vegan": "yes",
            "vegetarian": "yes"
          }
        ],
        "percent_estimate": 0.710227272727273,
        "percent_max": 14.2857142857143,
        "percent_min": 0,
        "text": "Säureregulatoren"
      },
      {
        "id": "en:e333iii",
        "percent_estimate": 0.35511363636364,
        "percent_max": 12.5,
        "percent_min": 0,
        "text": "Tricalciumcitrat",
        "vegan": "yes",
        "vegetarian": "yes"
      },
      {
        "id": "de:Karamelsirup",
        "percent_estimate": 0.17755681818182,
        "percent_max": 11.1111111111111,
        "percent_min": 0,
        "text": "Karamelsirup"
      },
      {
        "id": "en:flavouring",
        "percent_estimate": 0.0887784090909065,
        "percent_max": 10,
        "percent_min": 0,
        "text": "Aroma",
        "vegan": "maybe",
        "vegetarian": "maybe"
      },
      {
        "id": "en:glazing-agent",
        "ingredients": [
          {
            "id": "en:e903",
            "percent_estimate": 0.0887784090909065,
            "percent_max": 9.09090909090909,
            "percent_min": 0,
            "text": "Carnaubawachs",
            "vegan": "yes",
            "vegetarian": "yes"
          }
        ],
        "percent_estimate": 0.0887784090909065,
        "percent_max": 9.09090909090909,
        "percent_min": 0,
        "text": "Überzugsmittel"
      }
    ],
    "ingredients_analysis_tags": [
      "en:palm-oil-content-unknown",
      "en:non-vegan",
      "en:non-vegetarian"
    ],
    "ingredients_debug": [],
    "ingredients_from_or_that_may_be_from_palm_oil_n": 0,
    "ingredients_from_palm_oil_n": 0,
    "ingredients_from_palm_oil_tags": [],
    "ingredients_hierarchy": [
      "en:glucose-syrup",
      "en:glucose",
      "en:sugar",
      "en:starch",
      "en:e428",
      "en:acid",
      "en:e296",
      "en:acidity-regulator",
      "en:e333iii",
      "en:e333",
      "de:Karamelsirup",
      "en:flavouring",
      "en:glazing-agent",
      "en:e330",
      "en:e350ii",
      "en:e350",
      "en:e903"
    ],
    "ingredients_ids_debug": [],
    "ingredients_n": 14,
    "ingredients_n_tags": [
      "14",
      "11-20"
    ],
    "ingredients_original_tags": [
      "en:glucose-syrup",
      "en:sugar",
      "en:starch",
      "en:e428",
      "en:acid",
      "en:e296",
      "en:acidity-regulator",
      "en:e333iii",
      "de:Karamelsirup",
      "en:flavouring",
      "en:glazing-agent",
      "en:e330",
      "en:e350ii",
      "en:e903"
    ],
    "ingredients_percent_analysis": 1,
    "ingredients_tags": [
      "en:glucose-syrup",
      "en:glucose",
      "en:sugar",
      "en:starch",
      "en:e428",
      "en:acid",
      "en:e296",
      "en:acidity-regulator",
      "en:e333iii",
      "en:e333",
      "de:karamelsirup",
      "en:flavouring",
      "en:glazing-agent",
      "en:e330",
      "en:e350ii",
      "en:e350",
      "en:e903"
    ],
    "ingredients_text": "Glukosesirup; Zucker; Stärke; Gelatine; Säuerungsmittel: Citronensäure, Äpfelsäure; Säureregulatoren: Natriumhydrogenmalat, Tricalciumcitrat; Karamelsirup; Aroma; Überzugsmittel: Carnaubawachs.",
    "ingredients_text_de": "Glukosesirup; Zucker; Stärke; Gelatine; Säuerungsmittel: Citronensäure, Äpfelsäure; Säureregulatoren: Natriumhydrogenmalat, Tricalciumcitrat; Karamelsirup; Aroma; Überzugsmittel: Carnaubawachs.",
    "ingredients_text_debug": "",
    "ingredients_text_debug_tags": [],
    "ingredients_text_fr": "HARIBO' COLA CARAMELLE GOMMOSE AL GUSTO Dl FRUTTA E Dl COLA / Ingredienti: Sciroppo di glucosio; zucchero; amido; gelatina; acidificanti: acido citrico, acido malico; sciroppo di zucchero caramellato; aroma; agente di rivestimento: cera camauba. Da consumarsi preferibilmente entro fine ...(vedere Stampa sul retro della busta). Conservare al riparo da fonti di calore e umidità.",
    "ingredients_text_pl": "syrop glukozowy; cukier, skrobiz želatyna; kwasy: kwas cytrynowy, kwas jabikow; karmelizowany sy cukrowy, aromat; substancja glazurująca: wosk camauba. Najlepiej spo - przed końcem... (patrz nadrūk na opakowaniu). Chronić przed deplem wilgoda. Wyprodukowano w UE. Może zawiera śladewe ilości mi pszenicy. Dystrybutor: Haribo Sp z 0.0., Aleje Jerozolimskie 1428, 02-305 Warszawa Wyprodukowano przez: HARIBO Aústria GmbH&Co KG, Induelle 68, A-4020 Linz/Austria. 002975 3319515 5447 40037060",
    "ingredients_text_pl_ocr_1582563975": "syrop glukozowy; cukier, skrobiz želatyna; kwasy: kwas cytrynowy, kwas jabikow; karmelizowany sy cukrowy, aromat; substancja glazurująca: wosk camauba. Najlepiej spo- przed końcem... (patrz nadrūk na opakowaniu). Chronić przed deplem wilgoda. Wyprodukowano w UE. Może zawiera śladewe ilości mi pszenicy. Dystrybutor: Haribo Sp z 0.0., Aleje Jerozolimskie 1428, 02-305 Warszawa Wyprodukowano przez: HARIBO Aústria GmbH&Co KG, Induelle 68, A-4020 Linz/Austria. 002975 3319515 5447 40037060",
    "ingredients_text_pl_ocr_1582563975_result": "syrop glukozowy; cukier, skrobiz želatyna; kwasy: kwas cytrynowy, kwas jabikow; karmelizowany sy cukrowy, aromat; substancja glazurująca: wosk camauba. Najlepiej spo - przed końcem... (patrz nadrūk na opakowaniu). Chronić przed deplem wilgoda. Wyprodukowano w UE. Może zawiera śladewe ilości mi pszenicy. Dystrybutor: Haribo Sp z 0.0., Aleje Jerozolimskie 1428, 02-305 Warszawa Wyprodukowano przez: HARIBO Aústria GmbH&Co KG, Induelle 68, A-4020 Linz/Austria. 002975 3319515 5447 40037060",
    "ingredients_text_with_allergens": "Glukosesirup; Zucker; Stärke; Gelatine; Säuerungsmittel: Citronensäure, Äpfelsäure; Säureregulatoren: Natriumhydrogenmalat, Tricalciumcitrat; Karamelsirup; Aroma; Überzugsmittel: Carnaubawachs.",
    "ingredients_text_with_allergens_de": "Glukosesirup; Zucker; Stärke; Gelatine; Säuerungsmittel: Citronensäure, Äpfelsäure; Säureregulatoren: Natriumhydrogenmalat, Tricalciumcitrat; Karamelsirup; Aroma; Überzugsmittel: Carnaubawachs.",
    "ingredients_text_with_allergens_fr": "HARIBO' COLA CARAMELLE GOMMOSE AL GUSTO Dl FRUTTA E Dl COLA / Ingredienti: Sciroppo di glucosio; zucchero; amido; gelatina; acidificanti: acido citrico, acido malico; sciroppo di zucchero caramellato; aroma; agente di rivestimento: cera camauba. Da consumarsi preferibilmente entro fine ...(vedere Stampa sul retro della busta). Conservare al riparo da fonti di calore e umidità.",
    "ingredients_text_with_allergens_pl": "syrop glukozowy; cukier, skrobiz želatyna; kwasy: kwas cytrynowy, kwas jabikow; karmelizowany sy cukrowy, aromat; substancja glazurująca: wosk camauba. Najlepiej spo - przed końcem... (patrz nadrūk na opakowaniu). Chronić przed deplem wilgoda. Wyprodukowano w UE. Może zawiera śladewe ilości mi pszenicy. Dystrybutor: Haribo Sp z 0.0., Aleje Jerozolimskie 1428, 02-305 Warszawa Wyprodukowano przez: HARIBO Aústria GmbH&Co KG, Induelle 68, A-4020 Linz/Austria. 002975 3319515 5447 40037060",
    "ingredients_that_may_be_from_palm_oil_n": 0,
    "ingredients_that_may_be_from_palm_oil_tags": [],
    "ingredients_with_specified_percent_n": 0,
    "ingredients_with_specified_percent_sum": 0,
    "ingredients_with_unspecified_percent_n": 11,
    "ingredients_with_unspecified_percent_sum": 100,
    "interface_version_created": "20150316.jqm2",
    "interface_version_modified": "20190830",
    "known_ingredients_n": 16,
    "labels": "",
    "labels_hierarchy": [],
    "labels_lc": "de",
    "labels_old": "",
    "labels_tags": [],
    "lang": "de",
    "languages": {
      "en:french": 5,
      "en:german": 5,
      "en:polish": 4
    },
    "languages_codes": {
      "de": 5,
      "fr": 5,
      "pl": 4
    },
    "languages_hierarchy": [
      "en:polish",
      "en:french",
      "en:german"
    ],
    "languages_tags": [
      "en:polish",
      "en:french",
      "en:german",
      "en:3",
      "en:multilingual"
    ],
    "last_edit_dates_tags": [
      "2021-02-27",
      "2021-02",
      "2021"
    ],
    "last_editor": "rochus",
    "last_image_dates_tags": [
      "2021-02-27",
      "2021-02",
      "2021"
    ],
    "last_image_t": 1614417078,
    "last_modified_by": "rochus",
    "last_modified_t": 1614418055,
    "lc": "de",
    "link": "www.haribo.com",
    "main_countries_tags": [],
    "manufacturing_places": "bonn",
    "manufacturing_places_tags": [
      "bonn"
    ],
    "max_imgid": "14",
    "minerals_prev_tags": [],
    "minerals_tags": [],
    "misc_tags": [
      "en:nutrition-no-fiber",
      "en:nutrition-fruits-vegetables-nuts-estimate-from-ingredients",
      "en:nutrition-no-fiber-or-fruits-vegetables-nuts",
      "en:nutriscore-computed",
      "en:ecoscore-missing-data-warning",
      "en:ecoscore-computed",
      "en:ecoscore-extended-data-not-computed"
    ],
    "no_nutrition_data": "",
    "nova_group": 4,
    "nova_group_debug": " -- categories/en:candies : 3 -- additives/en:e428 : 4",
    "nova_group_tags": [
      "not-applicable"
    ],
    "nova_groups": "4",
    "nova_groups_tags": [
      "en:4-ultra-processed-food-and-drink-products"
    ],
    "nucleotides_prev_tags": [],
    "nucleotides_tags": [],
    "nutrient_levels": {
      "fat": "low",
      "salt": "low",
      "saturated-fat": "low",
      "sugars": "high"
    },
    "nutrient_levels_tags": [
      "en:fat-in-low-quantity",
      "en:saturated-fat-in-low-quantity",
      "en:sugars-in-high-quantity",
      "en:salt-in-low-quantity"
    ],
    "nutriments": {
      "carbohydrates": 82,
      "carbohydrates_100g": 82,
      "carbohydrates_serving": 12.3,
      "carbohydrates_unit": "g",
      "carbohydrates_value": 82,
      "energy": 1481,
      "energy-kcal": 348,
      "energy-kcal_100g": 348,
      "energy-kcal_serving": 52.2,
      "energy-kcal_unit": "kcal",
      "energy-kcal_value": 348,
      "energy-kj": 1481,
      "energy-kj_100g": 1481,
      "energy-kj_serving": 222,
      "energy-kj_unit": "kJ",
      "energy-kj_value": 1481,
      "energy_100g": 1481,
      "energy_serving": 222,
      "energy_unit": "kJ",
      "energy_value": 1481,
      "fat": 0.5,
      "fat_100g": 0.5,
      "fat_modifier": "<",
      "fat_serving": 0.075,
      "fat_unit": "g",
      "fat_value": 0.5,
      "fruits-vegetables-nuts-estimate-from-ingredients_100g": 0,
      "nova-group": 4,
      "nova-group_100g": 4,
      "nova-group_serving": 4,
      "nutrition-score-fr": 14,
      "nutrition-score-fr_100g": 14,
      "proteins": 3.5,
      "proteins_100g": 3.5,
      "proteins_serving": 0.525,
      "proteins_unit": "g",
      "proteins_value": 3.5,
      "salt": 0.21,
      "salt_100g": 0.21,
      "salt_serving": 0.0315,
      "salt_unit": "g",
      "salt_value": 0.21,
      "saturated-fat": 0.1,
      "saturated-fat_100g": 0.1,
      "saturated-fat_modifier": "<",
      "saturated-fat_serving": 0.015,
      "saturated-fat_unit": "g",
      "saturated-fat_value": 0.1,
      "sodium": 0.084,
      "sodium_100g": 0.084,
      "sodium_serving": 0.0126,
      "sodium_unit": "g",
      "sodium_value": 0.084,
      "sugars": 63,
      "sugars_100g": 63,
      "sugars_serving": 9.45,
      "sugars_unit": "g",
      "sugars_value": 63
    },
    "nutriscore_data": {
      "energy": 1481,
      "energy_points": 4,
      "energy_value": 1481,
      "fiber": 0,
      "fiber_points": 0,
      "fiber_value": 0,
      "fruits_vegetables_nuts_colza_walnut_olive_oils": 0,
      "fruits_vegetables_nuts_colza_walnut_olive_oils_points": 0,
      "fruits_vegetables_nuts_colza_walnut_olive_oils_value": 0,
      "grade": "d",
      "is_beverage": 0,
      "is_cheese": 0,
      "is_fat": 0,
      "is_water": 0,
      "negative_points": 14,
      "positive_points": 0,
      "proteins": 3.5,
      "proteins_points": 2,
      "proteins_value": 3.5,
      "saturated_fat": 0.1,
      "saturated_fat_points": 0,
      "saturated_fat_ratio": 20,
      "saturated_fat_ratio_points": 2,
      "saturated_fat_ratio_value": 20,
      "saturated_fat_value": 0.1,
      "score": 14,
      "sodium": 84,
      "sodium_points": 0,
      "sodium_value": 84,
      "sugars": 63,
      "sugars_points": 10,
      "sugars_value": 63
    },
    "nutriscore_grade": "d",
    "nutriscore_score": 14,
    "nutriscore_score_opposite": -14,
    "nutrition_data": "on",
    "nutrition_data_per": "100g",
    "nutrition_data_prepared": "",
    "nutrition_data_prepared_per": "100g",
    "nutrition_grade_fr": "d",
    "nutrition_grades": "d",
    "nutrition_grades_tags": [
      "d"
    ],
    "nutrition_score_beverage": 0,
    "nutrition_score_warning_fruits_vegetables_nuts_estimate_from_ingredients": 1,
    "nutrition_score_warning_fruits_vegetables_nuts_estimate_from_ingredients_value": 0,
    "nutrition_score_warning_no_fiber": 1,
    "obsolete": "",
    "obsolete_since_date": "",
    "origins": "",
    "origins_hierarchy": [],
    "origins_lc": "de",
    "origins_old": "",
    "origins_tags": [],
    "other_nutritional_substances_tags": [],
    "packaging": "plastik Tüte",
    "packaging_tags": [
      "plastik-tute"
    ],
    "packaging_text": "",
    "packaging_text_de": "",
    "packaging_text_fr": "",
    "packaging_text_pl": "",
    "packagings": [
      {
        "shape": "en:bag"
      }
    ],
    "photographers_tags": [
      "kiliweb",
      "logiclinux",
      "pyrka",
      "date-limite-app",
      "rochus"
    ],
    "pnns_groups_1": "Sugary snacks",
    "pnns_groups_1_tags": [
      "sugary-snacks",
      "known"
    ],
    "pnns_groups_2": "Sweets",
    "pnns_groups_2_tags": [
      "sweets",
      "known"
    ],
    "popularity_key": 18900000014,
    "popularity_tags": [
      "top-100000-scans-2019",
      "at-least-5-scans-2019",
      "top-75-percent-scans-2019",
      "top-80-percent-scans-2019",
      "top-85-percent-scans-2019",
      "top-90-percent-scans-2019",
      "top-5000-de-scans-2019",
      "top-10000-de-scans-2019",
      "top-50000-de-scans-2019",
      "top-100000-de-scans-2019",
      "top-country-de-scans-2019",
      "at-least-5-de-scans-2019",
      "top-5000-th-scans-2019",
      "top-10000-th-scans-2019",
      "top-50000-th-scans-2019",
      "top-100000-th-scans-2019",
      "top-75-percent-scans-2020",
      "top-80-percent-scans-2020",
      "top-85-percent-scans-2020",
      "top-90-percent-scans-2020",
      "top-50000-de-scans-2020",
      "top-100000-de-scans-2020",
      "top-country-de-scans-2020",
      "top-500-my-scans-2020",
      "top-1000-my-scans-2020",
      "top-5000-my-scans-2020",
      "top-10000-my-scans-2020",
      "top-50000-my-scans-2020",
      "top-100000-my-scans-2020",
      "top-5000-pl-scans-2020",
      "top-10000-pl-scans-2020",
      "top-50000-pl-scans-2020",
      "top-100000-pl-scans-2020"
    ],
    "product_name": "Happy Cola",
    "product_name_de": "Happy Cola",
    "product_name_fr": "Happy Cola Lemon Fresh",
    "product_name_pl": "",
    "product_quantity": "200",
    "purchase_places": "Deutschland",
    "purchase_places_tags": [
      "deutschland"
    ],
    "quantity": "200g",
    "removed_countries_tags": [],
    "rev": 50,
    "scans_n": 4,
    "selected_images": {
      "front": {
        "display": {
          "de": "https://images.openfoodfacts.org/images/products/900/297/531/9515/front_de.44.400.jpg",
          "fr": "https://images.openfoodfacts.org/images/products/900/297/531/9515/front_fr.11.400.jpg",
          "pl": "https://images.openfoodfacts.org/images/products/900/297/531/9515/front_pl.20.400.jpg"
        },
        "small": {
          "de": "https://images.openfoodfacts.org/images/products/900/297/531/9515/front_de.44.200.jpg",
          "fr": "https://images.openfoodfacts.org/images/products/900/297/531/9515/front_fr.11.200.jpg",
          "pl": "https://images.openfoodfacts.org/images/products/900/297/531/9515/front_pl.20.200.jpg"
        },
        "thumb": {
          "de": "https://images.openfoodfacts.org/images/products/900/297/531/9515/front_de.44.100.jpg",
          "fr": "https://images.openfoodfacts.org/images/products/900/297/531/9515/front_fr.11.100.jpg",
          "pl": "https://images.openfoodfacts.org/images/products/900/297/531/9515/front_pl.20.100.jpg"
        }
      },
      "ingredients": {
        "display": {
          "de": "https://images.openfoodfacts.org/images/products/900/297/531/9515/ingredients_de.45.400.jpg",
          "fr": "https://images.openfoodfacts.org/images/products/900/297/531/9515/ingredients_fr.7.400.jpg",
          "pl": "https://images.openfoodfacts.org/images/products/900/297/531/9515/ingredients_pl.23.400.jpg"
        },
        "small": {
          "de": "https://images.openfoodfacts.org/images/products/900/297/531/9515/ingredients_de.45.200.jpg",
          "fr": "https://images.openfoodfacts.org/images/products/900/297/531/9515/ingredients_fr.7.200.jpg",
          "pl": "https://images.openfoodfacts.org/images/products/900/297/531/9515/ingredients_pl.23.200.jpg"
        },
        "thumb": {
          "de": "https://images.openfoodfacts.org/images/products/900/297/531/9515/ingredients_de.45.100.jpg",
          "fr": "https://images.openfoodfacts.org/images/products/900/297/531/9515/ingredients_fr.7.100.jpg",
          "pl": "https://images.openfoodfacts.org/images/products/900/297/531/9515/ingredients_pl.23.100.jpg"
        }
      },
      "nutrition": {
        "display": {
          "de": "https://images.openfoodfacts.org/images/products/900/297/531/9515/nutrition_de.46.400.jpg",
          "fr": "https://images.openfoodfacts.org/images/products/900/297/531/9515/nutrition_fr.4.400.jpg",
          "pl": "https://images.openfoodfacts.org/images/products/900/297/531/9515/nutrition_pl.27.400.jpg"
        },
        "small": {
          "de": "https://images.openfoodfacts.org/images/products/900/297/531/9515/nutrition_de.46.200.jpg",
          "fr": "https://images.openfoodfacts.org/images/products/900/297/531/9515/nutrition_fr.4.200.jpg",
          "pl": "https://images.openfoodfacts.org/images/products/900/297/531/9515/nutrition_pl.27.200.jpg"
        },
        "thumb": {
          "de": "https://images.openfoodfacts.org/images/products/900/297/531/9515/nutrition_de.46.100.jpg",
          "fr": "https://images.openfoodfacts.org/images/products/900/297/531/9515/nutrition_fr.4.100.jpg",
          "pl": "https://images.openfoodfacts.org/images/products/900/297/531/9515/nutrition_pl.27.100.jpg"
        }
      },
      "packaging": {
        "display": {
          "de": "https://images.openfoodfacts.org/images/products/900/297/531/9515/packaging_de.49.400.jpg"
        },
        "small": {
          "de": "https://images.openfoodfacts.org/images/products/900/297/531/9515/packaging_de.49.200.jpg"
        },
        "thumb": {
          "de": "https://images.openfoodfacts.org/images/products/900/297/531/9515/packaging_de.49.100.jpg"
        }
      }
    },
    "serving_quantity": "15",
    "serving_size": "15g",
    "sortkey": 1602482096,
    "states": "en:to-be-completed, en:nutrition-facts-completed, en:ingredients-completed, en:expiration-date-completed, en:packaging-code-completed, en:characteristics-to-be-completed, en:origins-to-be-completed, en:categories-completed, en:brands-completed, en:packaging-completed, en:quantity-completed, en:product-name-completed, en:photos-validated, en:packaging-photo-selected, en:nutrition-photo-selected, en:ingredients-photo-selected, en:front-photo-selected, en:photos-uploaded",
    "states_hierarchy": [
      "en:to-be-completed",
      "en:nutrition-facts-completed",
      "en:ingredients-completed",
      "en:expiration-date-completed",
      "en:packaging-code-completed",
      "en:characteristics-to-be-completed",
      "en:origins-to-be-completed",
      "en:categories-completed",
      "en:brands-completed",
      "en:packaging-completed",
      "en:quantity-completed",
      "en:product-name-completed",
      "en:photos-validated",
      "en:packaging-photo-selected",
      "en:nutrition-photo-selected",
      "en:ingredients-photo-selected",
      "en:front-photo-selected",
      "en:photos-uploaded"
    ],
    "states_tags": [
      "en:to-be-completed",
      "en:nutrition-facts-completed",
      "en:ingredients-completed",
      "en:expiration-date-completed",
      "en:packaging-code-completed",
      "en:characteristics-to-be-completed",
      "en:origins-to-be-completed",
      "en:categories-completed",
      "en:brands-completed",
      "en:packaging-completed",
      "en:quantity-completed",
      "en:product-name-completed",
      "en:photos-validated",
      "en:packaging-photo-selected",
      "en:nutrition-photo-selected",
      "en:ingredients-photo-selected",
      "en:front-photo-selected",
      "en:photos-uploaded"
    ],
    "stores": "Kaufland",
    "stores_tags": [
      "kaufland"
    ],
    "traces": "en:gluten,en:milk",
    "traces_from_ingredients": "",
    "traces_from_user": "(de) en:gluten,en:milk",
    "traces_hierarchy": [
      "en:gluten",
      "en:milk"
    ],
    "traces_lc": "de",
    "traces_tags": [
      "en:gluten",
      "en:milk"
    ],
    "unique_scans_n": 3,
    "unknown_ingredients_n": 1,
    "unknown_nutrients_tags": [],
    "update_key": "eco1",
    "vitamins_prev_tags": [],
    "vitamins_tags": []
  },
  "status": 1,
  "status_verbose": "product found"
}